<?xml version="1.0" encoding="UTF-8" standalone="no"?>
<!-- Created with Inkscape (http://www.inkscape.org/) -->

<svg
   xmlns:dc="http://purl.org/dc/elements/1.1/"
   xmlns:cc="http://creativecommons.org/ns#"
   xmlns:rdf="http://www.w3.org/1999/02/22-rdf-syntax-ns#"
   xmlns:svg="http://www.w3.org/2000/svg"
   xmlns="http://www.w3.org/2000/svg"
   xmlns:sodipodi="http://sodipodi.sourceforge.net/DTD/sodipodi-0.dtd"
   xmlns:inkscape="http://www.inkscape.org/namespaces/inkscape"
   width="744.09448819"
   height="1052.3622047"
   id="svg4034"
   version="1.1"
   inkscape:version="0.47 r22583"
   sodipodi:docname="New document 3">
  <defs
     id="defs4036">
    <inkscape:perspective
       sodipodi:type="inkscape:persp3d"
       inkscape:vp_x="0 : 526.18109 : 1"
       inkscape:vp_y="0 : 1000 : 0"
       inkscape:vp_z="744.09448 : 526.18109 : 1"
       inkscape:persp3d-origin="372.04724 : 350.78739 : 1"
       id="perspective4042" />
    <inkscape:perspective
       id="perspective3299"
       inkscape:persp3d-origin="0.5 : 0.33333333 : 1"
       inkscape:vp_z="1 : 0.5 : 1"
       inkscape:vp_y="0 : 1000 : 0"
       inkscape:vp_x="0 : 0.5 : 1"
       sodipodi:type="inkscape:persp3d" />
    <clipPath
       id="presentation_clip_path"
       clipPathUnits="userSpaceOnUse">
      <rect
         x="0"
         y="0"
         width="21000"
         height="29700"
         id="rect7" />
    </clipPath>
  </defs>
  <sodipodi:namedview
     id="base"
     pagecolor="#ffffff"
     bordercolor="#ffffff"
     borderopacity="0.0"
     inkscape:pageopacity="0.0"
     inkscape:pageshadow="0"
     inkscape:zoom="0.35"
     inkscape:cx="350"
     inkscape:cy="520"
     inkscape:document-units="px"
     inkscape:current-layer="layer1"
     showgrid="false"
     inkscape:window-width="607"
     inkscape:window-height="491"
     inkscape:window-x="0"
     inkscape:window-y="51"
     inkscape:window-maximized="0" />
  <metadata
     id="metadata4039">
    <rdf:RDF>
      <cc:Work
         rdf:about="">
        <dc:format>image/svg+xml</dc:format>
        <dc:type
           rdf:resource="http://purl.org/dc/dcmitype/StillImage" />
        <dc:title></dc:title>
      </cc:Work>
    </rdf:RDF>
  </metadata>
  <g
     inkscape:label="Layer 1"
     inkscape:groupmode="layer"
     id="layer1">
    <g
       transform="matrix(0.03543307,0,0,0.03543307,-66.52701,265.1582)"
       class="SlideGroup"
       id="g49">
      <g
         id="g51">
        <g
           id="id1"
           class="Slide"
           clip-path="url(#presentation_clip_path)">
          <g
             class="Page"
             id="g54">
            <g
               class="com.sun.star.drawing.CustomShape"
               id="g56">
              <g
                 id="id3">
                <path
                   style="fill:#729fcf;stroke:none"
                   d="m 11250,12000 -5450,0 0,-8700 10900,0 0,8700 -5450,0 z"
                   id="path59" />
                <path
                   style="fill:none;stroke:#3465af"
                   d="m 11250,12000 -5450,0 0,-8700 10900,0 0,8700 -5450,0 z"
                   id="path61" />
              </g>
            </g>
            <g
               class="com.sun.star.drawing.CustomShape"
               id="g63">
              <g
                 id="id4">
                <path
                   style="fill:#c0c0c0;stroke:none"
                   d="m 11300,11500 -4900,0 0,-7700 9800,0 0,7700 -4900,0 z"
                   id="path66" />
                <path
                   style="fill:none;stroke:#3465af"
                   d="m 11300,11500 -4900,0 0,-7700 9800,0 0,7700 -4900,0 z"
                   id="path68" />
              </g>
            </g>
            <g
               class="com.sun.star.drawing.LineShape"
               id="g70">
              <g
                 id="id5">
                <path
                   style="fill:none;stroke:#000000"
                   d="m 9600,3300 0,8700"
                   id="path73" />
              </g>
            </g>
            <g
               class="com.sun.star.drawing.LineShape"
               id="g75">
              <g
                 id="id6">
                <path
                   style="fill:none;stroke:#000000"
                   d="m 12900,3300 0,8700"
                   id="path78" />
              </g>
            </g>
            <g
               class="com.sun.star.drawing.LineShape"
               id="g80">
              <g
                 id="id7">
                <path
                   style="fill:none;stroke:#000000"
                   d="m 5800,6200 10900,0"
                   id="path83" />
              </g>
            </g>
            <g
               class="com.sun.star.drawing.LineShape"
               id="g85">
              <g
                 id="id8">
                <path
                   style="fill:none;stroke:#000000"
                   d="m 5800,9100 10900,0"
                   id="path88" />
              </g>
            </g>
            <g
               class="com.sun.star.drawing.TextShape"
               id="g90">
              <g
                 id="id9">
                <text
                   class="TextShape"
                   id="text93">
                  <tspan
                     style="font-size:635px;font-weight:400;font-family:'Arial, sans-serif'"
                     class="TextParagraph"
                     font-size="635px"
                     font-weight="400"
                     id="tspan95">
                    <tspan
                       class="TextPosition"
                       x="7344"
                       y="5101"
                       id="tspan97">
                      <tspan
                         style="fill:#000000;stroke:none"
                         id="tspan99">(0,0)</tspan>
                    </tspan>
                  </tspan>
                </text>
              </g>
            </g>
            <g
               class="com.sun.star.drawing.TextShape"
               id="g101">
              <g
                 id="id10">
                <text
                   class="TextShape"
                   id="text104">
                  <tspan
                     style="font-size:635px;font-weight:400;font-family:'Arial, sans-serif'"
                     class="TextParagraph"
                     font-size="635px"
                     font-weight="400"
                     id="tspan106">
                    <tspan
                       class="TextPosition"
                       x="13950"
                       y="5101"
                       id="tspan108">
                      <tspan
                         style="fill:#000000;stroke:none"
                         id="tspan110">(2,0)</tspan>
                    </tspan>
                  </tspan>
                </text>
              </g>
            </g>
            <g
               class="com.sun.star.drawing.TextShape"
               id="g112">
              <g
                 id="id11">
                <text
                   class="TextShape"
                   id="text115">
                  <tspan
                     style="font-size:635px;font-weight:400;font-family:'Arial, sans-serif'"
                     class="TextParagraph"
                     font-size="635px"
                     font-weight="400"
                     id="tspan117">
                    <tspan
                       class="TextPosition"
                       x="10650"
                       y="5139"
                       id="tspan119">
                      <tspan
                         style="fill:#000000;stroke:none"
                         id="tspan121">(1,0)</tspan>
                    </tspan>
                  </tspan>
                </text>
              </g>
            </g>
            <g
               class="com.sun.star.drawing.TextShape"
               id="g123">
              <g
                 id="id12">
                <text
                   class="TextShape"
                   id="text126">
                  <tspan
                     style="font-size:635px;font-weight:400;font-family:'Arial, sans-serif'"
                     class="TextParagraph"
                     font-size="635px"
                     font-weight="400"
                     id="tspan128">
                    <tspan
                       class="TextPosition"
                       x="7244"
                       y="7701"
                       id="tspan130">
                      <tspan
                         style="fill:#000000;stroke:none"
                         id="tspan132">(0,1)</tspan>
                    </tspan>
                  </tspan>
                </text>
              </g>
            </g>
            <g
               class="com.sun.star.drawing.TextShape"
               id="g134">
              <g
                 id="id13">
                <text
                   class="TextShape"
                   id="text137">
                  <tspan
                     style="font-size:635px;font-weight:400;font-family:'Arial, sans-serif'"
                     class="TextParagraph"
                     font-size="635px"
                     font-weight="400"
                     id="tspan139">
                    <tspan
                       class="TextPosition"
                       x="7250"
                       y="10501"
                       id="tspan141">
                      <tspan
                         style="fill:#000000;stroke:none"
                         id="tspan143">(0,2)</tspan>
                    </tspan>
                  </tspan>
                </text>
              </g>
            </g>
            <g
               class="com.sun.star.drawing.TextShape"
               id="g145">
              <g
                 id="id14">
                <text
                   class="TextShape"
                   id="text148">
                  <tspan
                     style="font-size:635px;font-weight:400;font-family:'Arial, sans-serif'"
                     class="TextParagraph"
                     font-size="635px"
                     font-weight="400"
                     id="tspan150">
                    <tspan
                       class="TextPosition"
                       x="10644"
                       y="7701"
                       id="tspan152">
                      <tspan
                         style="fill:#000000;stroke:none"
                         id="tspan154">(1,1)</tspan>
                    </tspan>
                  </tspan>
                </text>
              </g>
            </g>
            <g
               class="com.sun.star.drawing.TextShape"
               id="g156">
              <g
                 id="id15">
                <text
                   class="TextShape"
                   id="text159">
                  <tspan
                     style="font-size:635px;font-weight:400;font-family:'Arial, sans-serif'"
                     class="TextParagraph"
                     font-size="635px"
                     font-weight="400"
                     id="tspan161">
                    <tspan
                       class="TextPosition"
                       x="13950"
                       y="10539"
                       id="tspan163">
                      <tspan
                         style="fill:#000000;stroke:none"
                         id="tspan165">(2,2)</tspan>
                    </tspan>
                  </tspan>
                </text>
              </g>
            </g>
            <g
               class="com.sun.star.drawing.TextShape"
               id="g167">
              <g
                 id="id16">
                <text
                   class="TextShape"
                   id="text170">
                  <tspan
                     style="font-size:635px;font-weight:400;font-family:'Arial, sans-serif'"
                     class="TextParagraph"
                     font-size="635px"
                     font-weight="400"
                     id="tspan172">
                    <tspan
                       class="TextPosition"
                       x="13944"
                       y="7639"
                       id="tspan174">
                      <tspan
                         style="fill:#000000;stroke:none"
                         id="tspan176">(2,1)</tspan>
                    </tspan>
                  </tspan>
                </text>
              </g>
            </g>
            <g
               class="com.sun.star.drawing.TextShape"
               id="g178">
              <g
                 id="id17">
                <text
                   class="TextShape"
                   id="text181">
                  <tspan
                     style="font-size:635px;font-weight:400;font-family:'Arial, sans-serif'"
                     class="TextParagraph"
                     font-size="635px"
                     font-weight="400"
                     id="tspan183">
                    <tspan
                       class="TextPosition"
                       x="10550"
                       y="10501"
                       id="tspan185">
                      <tspan
                         style="fill:#000000;stroke:none"
                         id="tspan187">(1,2)</tspan>
                    </tspan>
                  </tspan>
                </text>
              </g>
            </g>
            <g
               class="com.sun.star.drawing.MeasureShape"
               id="g189">
              <g
                 id="id18">
                <path
                   style="fill:none;stroke:#000000"
                   d="m 6087,3100 10326,0"
                   id="path192" />
                <path
                   style="fill:#000000;stroke:none"
                   d="m 5800,3100 300,100 0,-200 -300,100 z"
                   id="path194" />
                <path
                   style="fill:#000000;stroke:none"
                   d="m 16700,3100 -300,-100 0,200 300,-100 z"
                   id="path196" />
                <path
                   style="fill:none;stroke:#000000"
                   d="m 5800,3300 0,-400"
                   id="path198" />
                <path
                   style="fill:none;stroke:#000000"
                   d="m 16700,3300 0,-400"
                   id="path200" />
                <text
                   class="TextShape"
                   id="text202">
                  <tspan
                     style="font-size:423px;font-weight:400;font-family:'Arial, sans-serif'"
                     class="TextParagraph"
                     font-size="423px"
                     font-weight="400"
                     id="tspan204">
                    <tspan
                       class="TextPosition"
                       x="10353"
                       y="2926"
                       id="tspan206">
                      <tspan
                         style="fill:#000000;stroke:none"
                         id="tspan208">MM=M+2</tspan>
                    </tspan>
                  </tspan>
                </text>
              </g>
            </g>
            <g
               class="com.sun.star.drawing.MeasureShape"
               id="g210">
              <g
                 id="id19">
                <path
                   style="fill:none;stroke:#000000"
                   d="m 17400,3587 0,8126"
                   id="path213" />
                <path
                   style="fill:#000000;stroke:none"
                   d="m 17400,3300 -100,300 200,0 -100,-300 z"
                   id="path215" />
                <path
                   style="fill:#000000;stroke:none"
                   d="m 17400,12000 100,-300 -200,0 100,300 z"
                   id="path217" />
                <path
                   style="fill:none;stroke:#000000"
                   d="m 16700,3300 900,0"
                   id="path219" />
                <path
                   style="fill:none;stroke:#000000"
                   d="m 16700,12000 900,0"
                   id="path221" />
                <text
                   class="TextShape"
                   id="text223">
                  <tspan
                     style="font-size:423px;font-weight:400;font-family:'Arial, sans-serif'"
                     class="TextParagraph"
                     font-size="423px"
                     font-weight="400"
                     id="tspan225">
                    <tspan
                       class="TextPosition"
                       x="17218"
                       y="8466"
                       transform="matrix(0,-1,1,0,8752,25684)"
                       id="tspan227">
                      <tspan
                         style="fill:#000000;stroke:none"
                         id="tspan229">NN=N+2</tspan>
                    </tspan>
                  </tspan>
                </text>
              </g>
            </g>
            <g
               class="com.sun.star.drawing.MeasureShape"
               id="g231">
              <g
                 id="id20">
                <path
                   style="fill:none;stroke:#000000"
                   d="m 6300,4087 0,7126"
                   id="path234" />
                <path
                   style="fill:#000000;stroke:none"
                   d="m 6300,3800 -100,300 200,0 -100,-300 z"
                   id="path236" />
                <path
                   style="fill:#000000;stroke:none"
                   d="m 6300,11500 100,-300 -200,0 100,300 z"
                   id="path238" />
                <path
                   style="fill:none;stroke:#000000"
                   d="m 6100,3800 0,0 z"
                   id="path240" />
                <path
                   style="fill:none;stroke:#000000"
                   d="m 6100,11500 0,0 z"
                   id="path242" />
                <text
                   class="TextShape"
                   id="text244">
                  <tspan
                     style="font-size:423px;font-weight:400;font-family:'Arial, sans-serif'"
                     class="TextParagraph"
                     font-size="423px"
                     font-weight="400"
                     id="tspan246">
                    <tspan
                       class="TextPosition"
                       x="5645"
                       y="7804"
                       transform="matrix(0,-1,1,0,-2159,13449)"
                       id="tspan248">
                      <tspan
                         style="fill:#000000;stroke:none"
                         id="tspan250">N</tspan>
                    </tspan>
                  </tspan>
                </text>
              </g>
            </g>
            <g
               class="com.sun.star.drawing.MeasureShape"
               id="g252">
              <g
                 id="id21">
                <path
                   style="fill:none;stroke:#000000"
                   d="m 6587,11700 9326,0"
                   id="path255" />
                <path
                   style="fill:#000000;stroke:none"
                   d="m 6300,11700 300,100 0,-200 -300,100 z"
                   id="path257" />
                <path
                   style="fill:#000000;stroke:none"
                   d="m 16200,11700 -300,-100 0,200 300,-100 z"
                   id="path259" />
                <path
                   style="fill:none;stroke:#000000"
                   d="m 6300,11500 0,0 z"
                   id="path261" />
                <path
                   style="fill:none;stroke:#000000"
                   d="m 16200,11500 0,0 z"
                   id="path263" />
                <text
                   class="TextShape"
                   id="text265">
                  <tspan
                     style="font-size:423px;font-weight:400;font-family:'Arial, sans-serif'"
                     class="TextParagraph"
                     font-size="423px"
                     font-weight="400"
                     id="tspan267">
                    <tspan
                       class="TextPosition"
                       x="11074"
                       y="11526"
                       id="tspan269">
                      <tspan
                         style="fill:#000000;stroke:none"
                         id="tspan271">M</tspan>
                    </tspan>
                  </tspan>
                </text>
              </g>
            </g>
            <g
               class="com.sun.star.drawing.MeasureShape"
               id="g273">
              <g
                 id="id22">
                <path
                   style="fill:none;stroke:#000000"
                   d="m 6687,8500 2626,0"
                   id="path276" />
                <path
                   style="fill:#000000;stroke:none"
                   d="m 6400,8500 300,100 0,-200 -300,100 z"
                   id="path278" />
                <path
                   style="fill:#000000;stroke:none"
                   d="m 9600,8500 -300,-100 0,200 300,-100 z"
                   id="path280" />
                <path
                   style="fill:none;stroke:#000000"
                   d="m 6400,9200 0,-900"
                   id="path282" />
                <path
                   style="fill:none;stroke:#000000"
                   d="m 9600,9200 0,-900"
                   id="path284" />
                <text
                   class="TextShape"
                   id="text286">
                  <tspan
                     style="font-size:423px;font-weight:400;font-family:'Arial, sans-serif'"
                     class="TextParagraph"
                     font-size="423px"
                     font-weight="400"
                     id="tspan288">
                    <tspan
                       class="TextPosition"
                       x="7648"
                       y="8326"
                       id="tspan290">
                      <tspan
                         style="fill:#000000;stroke:none"
                         id="tspan292">mm</tspan>
                    </tspan>
                  </tspan>
                </text>
              </g>
            </g>
            <g
               class="com.sun.star.drawing.MeasureShape"
               id="g294">
              <g
                 id="id23">
                <path
                   style="fill:none;stroke:#000000"
                   d="m 9200,8813 0,-2326"
                   id="path297" />
                <path
                   style="fill:#000000;stroke:none"
                   d="m 9200,9100 100,-300 -200,0 100,300 z"
                   id="path299" />
                <path
                   style="fill:#000000;stroke:none"
                   d="m 9200,6200 -100,300 200,0 -100,-300 z"
                   id="path301" />
                <path
                   style="fill:none;stroke:#000000"
                   d="m 9900,9100 -900,0"
                   id="path303" />
                <path
                   style="fill:none;stroke:#000000"
                   d="m 9900,6200 -900,0"
                   id="path305" />
                <text
                   class="TextShape"
                   id="text307">
                  <tspan
                     style="font-size:423px;font-weight:400;font-family:'Arial, sans-serif'"
                     class="TextParagraph"
                     font-size="423px"
                     font-weight="400"
                     id="tspan309">
                    <tspan
                       class="TextPosition"
                       x="8986"
                       y="7887"
                       transform="matrix(0,-1,1,0,1099,16873)"
                       id="tspan311">
                      <tspan
                         style="fill:#000000;stroke:none"
                         id="tspan313">nn</tspan>
                    </tspan>
                  </tspan>
                </text>
              </g>
            </g>
            <g
               class="com.sun.star.drawing.CustomShape"
               id="g315">
              <g
                 id="id24">
                <path
                   style="fill:#000000;stroke:none"
                   d="m 6450,6100 c 85,0 150,65 150,150 0,85 -65,150 -150,150 -85,0 -150,-65 -150,-150 0,-85 65,-150 150,-150 z m -150,0 0,0 z m 301,301 0,0 z"
                   id="path318" />
                <path
                   style="fill:none;stroke:#3465af"
                   d="m 6450,6100 c 85,0 150,65 150,150 0,85 -65,150 -150,150 -85,0 -150,-65 -150,-150 0,-85 65,-150 150,-150 z"
                   id="path320" />
                <path
                   style="fill:none;stroke:#3465af"
                   d="m 6300,6100 0,0 z"
                   id="path322" />
                <path
                   style="fill:none;stroke:#3465af"
                   d="m 6601,6401 0,0 z"
                   id="path324" />
              </g>
            </g>
            <g
               class="com.sun.star.drawing.TextShape"
               id="g326">
              <g
                 id="id25">
                <text
                   class="TextShape"
                   id="text329">
                  <tspan
                     style="font-size:423px;font-weight:400;font-family:'Arial, sans-serif'"
                     class="TextParagraph"
                     font-size="423px"
                     font-weight="400"
                     id="tspan331">
                    <tspan
                       class="TextPosition"
                       x="5050"
                       y="6710"
                       id="tspan333">
                      <tspan
                         style="fill:#000000;stroke:none"
                         id="tspan335">(startm,startn)</tspan>
                    </tspan>
                  </tspan>
                </text>
              </g>
            </g>
            <g
               class="com.sun.star.drawing.LineShape"
               id="g337">
              <g
                 id="id26">
                <path
                   style="fill:none;stroke:#3465af"
                   d="m 5943,2800 414,0"
                   id="path340" />
                <path
                   style="fill:#3465af;stroke:none"
                   d="m 5800,2800 150,50 0,-100 -150,50 z"
                   id="path342" />
                <path
                   style="fill:#3465af;stroke:none"
                   d="m 6500,2800 -150,-50 0,100 150,-50 z"
                   id="path344" />
              </g>
            </g>
            <g
               class="com.sun.star.drawing.LineShape"
               id="g346">
              <g
                 id="id27">
                <path
                   style="fill:none;stroke:#3465af"
                   d="m 5400,3443 0,314"
                   id="path349" />
                <path
                   style="fill:#3465af;stroke:none"
                   d="m 5400,3300 -50,150 100,0 -50,-150 z"
                   id="path351" />
                <path
                   style="fill:#3465af;stroke:none"
                   d="m 5400,3900 50,-150 -100,0 50,150 z"
                   id="path353" />
              </g>
            </g>
            <g
               class="com.sun.star.drawing.TextShape"
               id="g355">
              <g
                 id="id28">
                <text
                   class="TextShape"
                   id="text358">
                  <tspan
                     style="font-size:282px;font-weight:400;font-family:'Arial, sans-serif'"
                     class="TextParagraph"
                     font-size="282px"
                     font-weight="400"
                     id="tspan360">
                    <tspan
                       class="TextPosition"
                       x="5750"
                       y="2514"
                       id="tspan362">
                      <tspan
                         style="fill:#000000;stroke:none"
                         id="tspan364">padm</tspan>
                    </tspan>
                  </tspan>
                </text>
              </g>
            </g>
            <g
               class="com.sun.star.drawing.TextShape"
               id="g366">
              <g
                 id="id29">
                <text
                   class="TextShape"
                   id="text369">
                  <tspan
                     style="font-size:282px;font-weight:400;font-family:'Arial, sans-serif'"
                     class="TextParagraph"
                     font-size="282px"
                     font-weight="400"
                     id="tspan371">
                    <tspan
                       class="TextPosition"
                       x="4650"
                       y="3683"
                       id="tspan373">
                      <tspan
                         style="fill:#000000;stroke:none"
                         id="tspan375">padn</tspan>
                    </tspan>
                  </tspan>
                </text>
              </g>
            </g>
            <g
               class="com.sun.star.drawing.LineShape"
               id="g377">
              <g
                 id="id30">
                <path
                   style="fill:none;stroke:#000000"
                   d="m 9600,8900 3300,0"
                   id="path380" />
              </g>
            </g>
            <g
               class="com.sun.star.drawing.LineShape"
               id="g382">
              <g
                 id="id31">
                <path
                   style="fill:none;stroke:#000000"
                   d="m 12700,6200 0,2900"
                   id="path385" />
              </g>
            </g>
            <g
               class="com.sun.star.drawing.LineShape"
               id="g387">
              <g
                 id="id32">
                <path
                   style="fill:none;stroke:#000000"
                   d="m 12900,6400 -3300,0"
                   id="path390" />
              </g>
            </g>
            <g
               class="com.sun.star.drawing.LineShape"
               id="g392">
              <g
                 id="id33">
                <path
                   style="fill:none;stroke:#000000"
                   d="m 9800,6200 0,2900"
                   id="path395" />
              </g>
            </g>
            <g
               class="com.sun.star.drawing.CustomShape"
               id="g397">
              <g
                 id="id34">
                <path
                   style="fill:#729fcf;stroke:none"
                   d="m 11100,8759 150,-159 151,159 -76,0 0,482 76,0 -151,160 -150,-160 75,0 0,-482 -75,0 z m 0,-159 0,0 z m 301,801 0,0 z"
                   id="path400" />
                <path
                   style="fill:none;stroke:#3465af"
                   d="m 11100,8759 150,-159 151,159 -76,0 0,482 76,0 -151,160 -150,-160 75,0 0,-482 -75,0 z"
                   id="path402" />
                <path
                   style="fill:none;stroke:#3465af"
                   d="m 11100,8600 0,0 z"
                   id="path404" />
                <path
                   style="fill:none;stroke:#3465af"
                   d="m 11401,9401 0,0 z"
                   id="path406" />
              </g>
            </g>
            <g
               class="com.sun.star.drawing.CustomShape"
               id="g408">
              <g
                 id="id35">
                <path
                   style="fill:#729fcf;stroke:none"
                   d="m 12400,7550 179,-150 0,75 542,0 0,-75 180,150 -180,151 0,-76 -542,0 0,76 -179,-151 z m 0,-150 0,0 z m 901,301 0,0 z"
                   id="path411" />
                <path
                   style="fill:none;stroke:#3465af"
                   d="m 12400,7550 179,-150 0,75 542,0 0,-75 180,150 -180,151 0,-76 -542,0 0,76 -179,-151 z"
                   id="path413" />
                <path
                   style="fill:none;stroke:#3465af"
                   d="m 12400,7400 0,0 z"
                   id="path415" />
                <path
                   style="fill:none;stroke:#3465af"
                   d="m 13301,7701 0,0 z"
                   id="path417" />
              </g>
            </g>
            <g
               class="com.sun.star.drawing.CustomShape"
               id="g419">
              <g
                 id="id36">
                <path
                   style="fill:#729fcf;stroke:none"
                   d="m 9300,7550 159,-150 0,75 482,0 0,-75 160,150 -160,151 0,-76 -482,0 0,76 -159,-151 z m 0,-150 0,0 z m 801,301 0,0 z"
                   id="path422" />
                <path
                   style="fill:none;stroke:#3465af"
                   d="m 9300,7550 159,-150 0,75 482,0 0,-75 160,150 -160,151 0,-76 -482,0 0,76 -159,-151 z"
                   id="path424" />
                <path
                   style="fill:none;stroke:#3465af"
                   d="m 9300,7400 0,0 z"
                   id="path426" />
                <path
                   style="fill:none;stroke:#3465af"
                   d="m 10101,7701 0,0 z"
                   id="path428" />
              </g>
            </g>
            <g
               class="com.sun.star.drawing.CustomShape"
               id="g430">
              <g
                 id="id37">
                <path
                   style="fill:#729fcf;stroke:none"
                   d="m 11100,6059 150,-159 151,159 -76,0 0,482 76,0 -151,160 -150,-160 75,0 0,-482 -75,0 z m 0,-159 0,0 z m 301,801 0,0 z"
                   id="path433" />
                <path
                   style="fill:none;stroke:#3465af"
                   d="m 11100,6059 150,-159 151,159 -76,0 0,482 76,0 -151,160 -150,-160 75,0 0,-482 -75,0 z"
                   id="path435" />
                <path
                   style="fill:none;stroke:#3465af"
                   d="m 11100,5900 0,0 z"
                   id="path437" />
                <path
                   style="fill:none;stroke:#3465af"
                   d="m 11401,6701 0,0 z"
                   id="path439" />
              </g>
            </g>
            <g
               class="com.sun.star.drawing.LineShape"
               id="g441">
              <g
                 id="id38">
                <path
                   style="fill:none;stroke:#3465af"
                   d="m 16343,12200 214,0"
                   id="path444" />
                <path
                   style="fill:#3465af;stroke:none"
                   d="m 16200,12200 150,50 0,-100 -150,50 z"
                   id="path446" />
                <path
                   style="fill:#3465af;stroke:none"
                   d="m 16700,12200 -150,-50 0,100 150,-50 z"
                   id="path448" />
              </g>
            </g>
            <g
               class="com.sun.star.drawing.LineShape"
               id="g450">
              <g
                 id="id39">
                <path
                   style="fill:none;stroke:#3465af"
                   d="m 16800,11643 0,214"
                   id="path453" />
                <path
                   style="fill:#3465af;stroke:none"
                   d="m 16800,11500 -50,150 100,0 -50,-150 z"
                   id="path455" />
                <path
                   style="fill:#3465af;stroke:none"
                   d="m 16800,12000 50,-150 -100,0 50,150 z"
                   id="path457" />
              </g>
            </g>
            <g
               class="com.sun.star.drawing.TextShape"
               id="g459">
              <g
                 id="id40">
                <text
                   class="TextShape"
                   id="text462">
                  <tspan
                     style="font-size:282px;font-weight:400;font-family:'Arial, sans-serif'"
                     class="TextParagraph"
                     font-size="282px"
                     font-weight="400"
                     id="tspan464">
                    <tspan
                       class="TextPosition"
                       x="15750"
                       y="12714"
                       id="tspan466">
                      <tspan
                         style="fill:#000000;stroke:none"
                         id="tspan468">padm_max</tspan>
                    </tspan>
                  </tspan>
                </text>
              </g>
            </g>
            <g
               class="com.sun.star.drawing.TextShape"
               id="g470">
              <g
                 id="id41">
                <text
                   class="TextShape"
                   id="text473">
                  <tspan
                     style="font-size:282px;font-weight:400;font-family:'Arial, sans-serif'"
                     class="TextParagraph"
                     font-size="282px"
                     font-weight="400"
                     id="tspan475">
                    <tspan
                       class="TextPosition"
                       x="17027"
                       y="11514"
                       id="tspan477">
                      <tspan
                         style="fill:#000000;stroke:none"
                         id="tspan479">padn_max</tspan>
                    </tspan>
                  </tspan>
                </text>
              </g>
            </g>
          </g>
        </g>
      </g>
    </g>
  </g>
</svg>
