%!PS-Adobe-3.0 EPSF-3.0 
%%BoundingBox: 0 0 595 842
%%Pages: 0
%%Creator: LibreOffice 4.0
%%Title: none
%%CreationDate: none
%%LanguageLevel: 2
%%EndComments
%%BeginProlog
%%BeginResource: procset SDRes-Prolog 1.0 0
/b4_inc_state save def
/dict_count countdictstack def
/op_count count 1 sub def
userdict begin
0 setgray 0 setlinecap 1 setlinewidth 0 setlinejoin 10 setmiterlimit[] 0 setdash newpath
/languagelevel where {pop languagelevel 1 ne {false setstrokeadjust false setoverprint} if} if
/bdef {bind def} bind def
/c {setgray} bdef
/l {neg lineto} bdef
/rl {neg rlineto} bdef
/lc {setlinecap} bdef
/lj {setlinejoin} bdef
/lw {setlinewidth} bdef
/ml {setmiterlimit} bdef
/ld {setdash} bdef
/m {neg moveto} bdef
/ct {6 2 roll neg 6 2 roll neg 6 2 roll neg curveto} bdef
/r {rotate} bdef
/t {neg translate} bdef
/s {scale} bdef
/sw {show} bdef
/gs {gsave} bdef
/gr {grestore} bdef
/f {findfont dup length dict begin
{1 index /FID ne {def} {pop pop} ifelse} forall /Encoding ISOLatin1Encoding def
currentdict end /NFont exch definefont pop /NFont findfont} bdef
/p {closepath} bdef
/sf {scalefont setfont} bdef
/ef {eofill}bdef
/pc {closepath stroke}bdef
/ps {stroke}bdef
/pum {matrix currentmatrix}bdef
/pom {setmatrix}bdef
/bs {/aString exch def /nXOfs exch def /nWidth exch def currentpoint nXOfs 0 rmoveto pum nWidth aString stringwidth pop div 1 scale aString show pom moveto} bdef
%%EndResource
%%EndProlog
%%BeginSetup
%%EndSetup
%%Page: 1 1
%%BeginPageSetup
%%EndPageSetup
pum
0.02833 0.02835 s 
0 -29700 t
/tm matrix currentmatrix def
gs
tm setmatrix
-1105 -2424 t 
1 1 s 
1105 2424 m 22104 2424 l 22104 32122 l 1105 32122 l 1105 2424 l eoclip newpath
gs
0 0 m 20999 0 l 20999 29698 l 0 29698 l 0 0 l eoclip newpath
0.588 c 12434 29089 m  6410 29089 l  6410 7999 l  18457 7999 l  18457 29089 l 
12434 29089 l  p ef
0 lw 1 lj 0.368 c 12434 29089 m  6410 29089 l  6410 7999 l  18457 7999 l 
18457 29089 l  12434 29089 l  pc
0.750 c 12489 27877 m  7073 27877 l  7073 9211 l  17905 9211 l  17905 27877 l 
12489 27877 l  p ef
0.368 c 12489 27877 m  7073 27877 l  7073 9211 l  17905 9211 l  17905 27877 l 
12489 27877 l  pc
0.000 c 10610 7999 m  10610 29089 l  ps
14257 7999 m  14257 29089 l  ps
6410 15029 m  18457 15029 l  ps
6410 22059 m  18457 22059 l  ps
pum
8117 12365 t
360 324 m  285 230 222 120 171 -7 ct 119 -133 93 -264 93 -399 ct 93 -518 112 -632 151 -741 ct 
196 -868 266 -994 360 -1120 ct 457 -1120 l  396 -1016 356 -942 337 -897 ct 306 -828 282 -756 265 -681 ct 
243 -587 232 -493 232 -398 ct 232 -157 307 84 457 324 ct 360 324 l  p ef
298 -543 m  298 -673 311 -778 338 -858 ct 365 -937 405 -998 458 -1041 ct 510 -1084 577 -1106 657 -1106 ct 
716 -1106 768 -1094 813 -1070 ct 857 -1046 894 -1012 923 -967 ct 952 -922 975 -868 991 -803 ct 
1008 -739 1016 -652 1016 -543 ct 1016 -414 1003 -310 976 -230 ct 950 -151 910 -89 857 -46 ct 
804 -3 738 19 657 19 ct 551 19 467 -19 407 -95 ct 334 -187 298 -336 298 -543 ct 
p
437 -543 m  437 -362 458 -242 500 -182 ct 543 -122 595 -92 657 -92 ct 719 -92 771 -122 814 -182 ct 
856 -243 877 -363 877 -543 ct 877 -724 856 -845 814 -905 ct 771 -964 719 -994 656 -994 ct 
593 -994 544 -968 507 -915 ct 460 -848 437 -724 437 -543 ct p ef
759 0 m  759 -154 l  913 -154 l  913 0 l  913 57 903 102 883 137 ct 863 172 831 199 787 218 ct 
750 160 l  778 148 799 129 813 105 ct 826 81 834 46 835 0 ct 759 0 l  p ef
883 -543 m  883 -673 896 -778 923 -858 ct 950 -937 990 -998 1043 -1041 ct 1095 -1084 1162 -1106 1242 -1106 ct 
1301 -1106 1353 -1094 1398 -1070 ct 1442 -1046 1479 -1012 1508 -967 ct 1537 -922 1560 -868 1576 -803 ct 
1593 -739 1601 -652 1601 -543 ct 1601 -414 1588 -310 1561 -230 ct 1535 -151 1495 -89 1442 -46 ct 
1389 -3 1323 19 1242 19 ct 1136 19 1052 -19 992 -95 ct 919 -187 883 -336 883 -543 ct 
p
1022 -543 m  1022 -362 1043 -242 1085 -182 ct 1128 -122 1180 -92 1242 -92 ct 
1304 -92 1356 -122 1399 -182 ct 1441 -243 1462 -363 1462 -543 ct 1462 -724 1441 -845 1399 -905 ct 
1356 -964 1304 -994 1241 -994 ct 1178 -994 1129 -968 1092 -915 ct 1045 -848 1022 -724 1022 -543 ct 
p ef
1397 324 m  1300 324 l  1450 84 1525 -157 1525 -398 ct 1525 -492 1514 -586 1493 -678 ct 
1476 -753 1452 -826 1421 -895 ct 1402 -940 1361 -1015 1300 -1120 ct 1397 -1120 l 
1491 -994 1561 -868 1606 -741 ct 1645 -632 1664 -518 1664 -399 ct 1664 -264 1638 -133 1586 -7 ct 
1534 120 1471 230 1397 324 ct p ef
pom
pum
15418 12365 t
360 324 m  285 230 222 120 171 -7 ct 119 -133 93 -264 93 -399 ct 93 -518 112 -632 151 -741 ct 
196 -868 266 -994 360 -1120 ct 457 -1120 l  396 -1016 356 -942 337 -897 ct 306 -828 282 -756 265 -681 ct 
243 -587 232 -493 232 -398 ct 232 -157 307 84 457 324 ct 360 324 l  p ef
1009 -130 m  1009 0 l  281 0 l  280 -33 285 -64 296 -94 ct 315 -144 345 -192 385 -240 ct 
426 -289 485 -344 562 -407 ct 682 -505 763 -583 805 -641 ct 847 -698 868 -752 868 -803 ct 
868 -857 849 -902 811 -939 ct 772 -976 722 -994 661 -994 ct 596 -994 544 -975 505 -935 ct 
465 -896 446 -842 445 -773 ct 306 -787 l  316 -891 351 -970 414 -1024 ct 476 -1079 559 -1106 664 -1106 ct 
770 -1106 853 -1077 915 -1018 ct 976 -959 1007 -887 1007 -800 ct 1007 -756 998 -713 980 -670 ct 
962 -628 932 -583 890 -536 ct 849 -489 779 -424 682 -342 ct 601 -274 549 -228 526 -203 ct 
503 -179 483 -155 468 -130 ct 1009 -130 l  p ef
759 0 m  759 -154 l  913 -154 l  913 0 l  913 57 903 102 883 137 ct 863 172 831 199 787 218 ct 
750 160 l  778 148 799 129 813 105 ct 826 81 834 46 835 0 ct 759 0 l  p ef
883 -543 m  883 -673 896 -778 923 -858 ct 950 -937 990 -998 1043 -1041 ct 1095 -1084 1162 -1106 1242 -1106 ct 
1301 -1106 1353 -1094 1398 -1070 ct 1442 -1046 1479 -1012 1508 -967 ct 1537 -922 1560 -868 1576 -803 ct 
1593 -739 1601 -652 1601 -543 ct 1601 -414 1588 -310 1561 -230 ct 1535 -151 1495 -89 1442 -46 ct 
1389 -3 1323 19 1242 19 ct 1136 19 1052 -19 992 -95 ct 919 -187 883 -336 883 -543 ct 
p
1022 -543 m  1022 -362 1043 -242 1085 -182 ct 1128 -122 1180 -92 1242 -92 ct 
1304 -92 1356 -122 1399 -182 ct 1441 -243 1462 -363 1462 -543 ct 1462 -724 1441 -845 1399 -905 ct 
1356 -964 1304 -994 1241 -994 ct 1178 -994 1129 -968 1092 -915 ct 1045 -848 1022 -724 1022 -543 ct 
p ef
1397 324 m  1300 324 l  1450 84 1525 -157 1525 -398 ct 1525 -492 1514 -586 1493 -678 ct 
1476 -753 1452 -826 1421 -895 ct 1402 -940 1361 -1015 1300 -1120 ct 1397 -1120 l 
1491 -994 1561 -868 1606 -741 ct 1645 -632 1664 -518 1664 -399 ct 1664 -264 1638 -133 1586 -7 ct 
1534 120 1471 230 1397 324 ct p ef
pom
pum
11771 12457 t
360 324 m  285 230 222 120 171 -7 ct 119 -133 93 -264 93 -399 ct 93 -518 112 -632 151 -741 ct 
196 -868 266 -994 360 -1120 ct 457 -1120 l  396 -1016 356 -942 337 -897 ct 306 -828 282 -756 265 -681 ct 
243 -587 232 -493 232 -398 ct 232 -157 307 84 457 324 ct 360 324 l  p ef
807 0 m  672 0 l  672 -862 l  640 -831 597 -800 544 -769 ct 491 -738 444 -714 402 -699 ct 
402 -830 l  477 -865 543 -908 600 -959 ct 657 -1009 697 -1058 720 -1106 ct 807 -1106 l 
807 0 l  p ef
759 0 m  759 -154 l  913 -154 l  913 0 l  913 57 903 102 883 137 ct 863 172 831 199 787 218 ct 
750 160 l  778 148 799 129 813 105 ct 826 81 834 46 835 0 ct 759 0 l  p ef
883 -543 m  883 -673 896 -778 923 -858 ct 950 -937 990 -998 1043 -1041 ct 1095 -1084 1162 -1106 1242 -1106 ct 
1301 -1106 1353 -1094 1398 -1070 ct 1442 -1046 1479 -1012 1508 -967 ct 1537 -922 1560 -868 1576 -803 ct 
1593 -739 1601 -652 1601 -543 ct 1601 -414 1588 -310 1561 -230 ct 1535 -151 1495 -89 1442 -46 ct 
1389 -3 1323 19 1242 19 ct 1136 19 1052 -19 992 -95 ct 919 -187 883 -336 883 -543 ct 
p
1022 -543 m  1022 -362 1043 -242 1085 -182 ct 1128 -122 1180 -92 1242 -92 ct 
1304 -92 1356 -122 1399 -182 ct 1441 -243 1462 -363 1462 -543 ct 1462 -724 1441 -845 1399 -905 ct 
1356 -964 1304 -994 1241 -994 ct 1178 -994 1129 -968 1092 -915 ct 1045 -848 1022 -724 1022 -543 ct 
p ef
1397 324 m  1300 324 l  1450 84 1525 -157 1525 -398 ct 1525 -492 1514 -586 1493 -678 ct 
1476 -753 1452 -826 1421 -895 ct 1402 -940 1361 -1015 1300 -1120 ct 1397 -1120 l 
1491 -994 1561 -868 1606 -741 ct 1645 -632 1664 -518 1664 -399 ct 1664 -264 1638 -133 1586 -7 ct 
1534 120 1471 230 1397 324 ct p ef
pom
pum
8007 18668 t
360 324 m  285 230 222 120 171 -7 ct 119 -133 93 -264 93 -399 ct 93 -518 112 -632 151 -741 ct 
196 -868 266 -994 360 -1120 ct 457 -1120 l  396 -1016 356 -942 337 -897 ct 306 -828 282 -756 265 -681 ct 
243 -587 232 -493 232 -398 ct 232 -157 307 84 457 324 ct 360 324 l  p ef
298 -543 m  298 -673 311 -778 338 -858 ct 365 -937 405 -998 458 -1041 ct 510 -1084 577 -1106 657 -1106 ct 
716 -1106 768 -1094 813 -1070 ct 857 -1046 894 -1012 923 -967 ct 952 -922 975 -868 991 -803 ct 
1008 -739 1016 -652 1016 -543 ct 1016 -414 1003 -310 976 -230 ct 950 -151 910 -89 857 -46 ct 
804 -3 738 19 657 19 ct 551 19 467 -19 407 -95 ct 334 -187 298 -336 298 -543 ct 
p
437 -543 m  437 -362 458 -242 500 -182 ct 543 -122 595 -92 657 -92 ct 719 -92 771 -122 814 -182 ct 
856 -243 877 -363 877 -543 ct 877 -724 856 -845 814 -905 ct 771 -964 719 -994 656 -994 ct 
593 -994 544 -968 507 -915 ct 460 -848 437 -724 437 -543 ct p ef
759 0 m  759 -154 l  913 -154 l  913 0 l  913 57 903 102 883 137 ct 863 172 831 199 787 218 ct 
750 160 l  778 148 799 129 813 105 ct 826 81 834 46 835 0 ct 759 0 l  p ef
1392 0 m  1257 0 l  1257 -862 l  1225 -831 1182 -800 1129 -769 ct 1076 -738 1029 -714 987 -699 ct 
987 -830 l  1062 -865 1128 -908 1185 -959 ct 1242 -1009 1282 -1058 1305 -1106 ct 
1392 -1106 l  1392 0 l  p ef
1397 324 m  1300 324 l  1450 84 1525 -157 1525 -398 ct 1525 -492 1514 -586 1493 -678 ct 
1476 -753 1452 -826 1421 -895 ct 1402 -940 1361 -1015 1300 -1120 ct 1397 -1120 l 
1491 -994 1561 -868 1606 -741 ct 1645 -632 1664 -518 1664 -399 ct 1664 -264 1638 -133 1586 -7 ct 
1534 120 1471 230 1397 324 ct p ef
pom
pum
8013 25455 t
360 324 m  285 230 222 120 171 -7 ct 119 -133 93 -264 93 -399 ct 93 -518 112 -632 151 -741 ct 
196 -868 266 -994 360 -1120 ct 457 -1120 l  396 -1016 356 -942 337 -897 ct 306 -828 282 -756 265 -681 ct 
243 -587 232 -493 232 -398 ct 232 -157 307 84 457 324 ct 360 324 l  p ef
298 -543 m  298 -673 311 -778 338 -858 ct 365 -937 405 -998 458 -1041 ct 510 -1084 577 -1106 657 -1106 ct 
716 -1106 768 -1094 813 -1070 ct 857 -1046 894 -1012 923 -967 ct 952 -922 975 -868 991 -803 ct 
1008 -739 1016 -652 1016 -543 ct 1016 -414 1003 -310 976 -230 ct 950 -151 910 -89 857 -46 ct 
804 -3 738 19 657 19 ct 551 19 467 -19 407 -95 ct 334 -187 298 -336 298 -543 ct 
p
437 -543 m  437 -362 458 -242 500 -182 ct 543 -122 595 -92 657 -92 ct 719 -92 771 -122 814 -182 ct 
856 -243 877 -363 877 -543 ct 877 -724 856 -845 814 -905 ct 771 -964 719 -994 656 -994 ct 
593 -994 544 -968 507 -915 ct 460 -848 437 -724 437 -543 ct p ef
759 0 m  759 -154 l  913 -154 l  913 0 l  913 57 903 102 883 137 ct 863 172 831 199 787 218 ct 
750 160 l  778 148 799 129 813 105 ct 826 81 834 46 835 0 ct 759 0 l  p ef
1594 -130 m  1594 0 l  866 0 l  865 -33 870 -64 881 -94 ct 900 -144 930 -192 970 -240 ct 
1011 -289 1070 -344 1147 -407 ct 1267 -505 1348 -583 1390 -641 ct 1432 -698 1453 -752 1453 -803 ct 
1453 -857 1434 -902 1396 -939 ct 1357 -976 1307 -994 1246 -994 ct 1181 -994 1129 -975 1090 -935 ct 
1050 -896 1031 -842 1030 -773 ct 891 -787 l  901 -891 936 -970 999 -1024 ct 
1061 -1079 1144 -1106 1249 -1106 ct 1355 -1106 1438 -1077 1500 -1018 ct 1561 -959 1592 -887 1592 -800 ct 
1592 -756 1583 -713 1565 -670 ct 1547 -628 1517 -583 1475 -536 ct 1434 -489 1364 -424 1267 -342 ct 
1186 -274 1134 -228 1111 -203 ct 1088 -179 1068 -155 1053 -130 ct 1594 -130 l 
p ef
1397 324 m  1300 324 l  1450 84 1525 -157 1525 -398 ct 1525 -492 1514 -586 1493 -678 ct 
1476 -753 1452 -826 1421 -895 ct 1402 -940 1361 -1015 1300 -1120 ct 1397 -1120 l 
1491 -994 1561 -868 1606 -741 ct 1645 -632 1664 -518 1664 -399 ct 1664 -264 1638 -133 1586 -7 ct 
1534 120 1471 230 1397 324 ct p ef
pom
pum
11764 18668 t
360 324 m  285 230 222 120 171 -7 ct 119 -133 93 -264 93 -399 ct 93 -518 112 -632 151 -741 ct 
196 -868 266 -994 360 -1120 ct 457 -1120 l  396 -1016 356 -942 337 -897 ct 306 -828 282 -756 265 -681 ct 
243 -587 232 -493 232 -398 ct 232 -157 307 84 457 324 ct 360 324 l  p ef
807 0 m  672 0 l  672 -862 l  640 -831 597 -800 544 -769 ct 491 -738 444 -714 402 -699 ct 
402 -830 l  477 -865 543 -908 600 -959 ct 657 -1009 697 -1058 720 -1106 ct 807 -1106 l 
807 0 l  p ef
759 0 m  759 -154 l  913 -154 l  913 0 l  913 57 903 102 883 137 ct 863 172 831 199 787 218 ct 
750 160 l  778 148 799 129 813 105 ct 826 81 834 46 835 0 ct 759 0 l  p ef
1392 0 m  1257 0 l  1257 -862 l  1225 -831 1182 -800 1129 -769 ct 1076 -738 1029 -714 987 -699 ct 
987 -830 l  1062 -865 1128 -908 1185 -959 ct 1242 -1009 1282 -1058 1305 -1106 ct 
1392 -1106 l  1392 0 l  p ef
1397 324 m  1300 324 l  1450 84 1525 -157 1525 -398 ct 1525 -492 1514 -586 1493 -678 ct 
1476 -753 1452 -826 1421 -895 ct 1402 -940 1361 -1015 1300 -1120 ct 1397 -1120 l 
1491 -994 1561 -868 1606 -741 ct 1645 -632 1664 -518 1664 -399 ct 1664 -264 1638 -133 1586 -7 ct 
1534 120 1471 230 1397 324 ct p ef
pom
pum
15418 25548 t
360 324 m  285 230 222 120 171 -7 ct 119 -133 93 -264 93 -399 ct 93 -518 112 -632 151 -741 ct 
196 -868 266 -994 360 -1120 ct 457 -1120 l  396 -1016 356 -942 337 -897 ct 306 -828 282 -756 265 -681 ct 
243 -587 232 -493 232 -398 ct 232 -157 307 84 457 324 ct 360 324 l  p ef
1009 -130 m  1009 0 l  281 0 l  280 -33 285 -64 296 -94 ct 315 -144 345 -192 385 -240 ct 
426 -289 485 -344 562 -407 ct 682 -505 763 -583 805 -641 ct 847 -698 868 -752 868 -803 ct 
868 -857 849 -902 811 -939 ct 772 -976 722 -994 661 -994 ct 596 -994 544 -975 505 -935 ct 
465 -896 446 -842 445 -773 ct 306 -787 l  316 -891 351 -970 414 -1024 ct 476 -1079 559 -1106 664 -1106 ct 
770 -1106 853 -1077 915 -1018 ct 976 -959 1007 -887 1007 -800 ct 1007 -756 998 -713 980 -670 ct 
962 -628 932 -583 890 -536 ct 849 -489 779 -424 682 -342 ct 601 -274 549 -228 526 -203 ct 
503 -179 483 -155 468 -130 ct 1009 -130 l  p ef
759 0 m  759 -154 l  913 -154 l  913 0 l  913 57 903 102 883 137 ct 863 172 831 199 787 218 ct 
750 160 l  778 148 799 129 813 105 ct 826 81 834 46 835 0 ct 759 0 l  p ef
1594 -130 m  1594 0 l  866 0 l  865 -33 870 -64 881 -94 ct 900 -144 930 -192 970 -240 ct 
1011 -289 1070 -344 1147 -407 ct 1267 -505 1348 -583 1390 -641 ct 1432 -698 1453 -752 1453 -803 ct 
1453 -857 1434 -902 1396 -939 ct 1357 -976 1307 -994 1246 -994 ct 1181 -994 1129 -975 1090 -935 ct 
1050 -896 1031 -842 1030 -773 ct 891 -787 l  901 -891 936 -970 999 -1024 ct 
1061 -1079 1144 -1106 1249 -1106 ct 1355 -1106 1438 -1077 1500 -1018 ct 1561 -959 1592 -887 1592 -800 ct 
1592 -756 1583 -713 1565 -670 ct 1547 -628 1517 -583 1475 -536 ct 1434 -489 1364 -424 1267 -342 ct 
1186 -274 1134 -228 1111 -203 ct 1088 -179 1068 -155 1053 -130 ct 1594 -130 l 
p ef
1397 324 m  1300 324 l  1450 84 1525 -157 1525 -398 ct 1525 -492 1514 -586 1493 -678 ct 
1476 -753 1452 -826 1421 -895 ct 1402 -940 1361 -1015 1300 -1120 ct 1397 -1120 l 
1491 -994 1561 -868 1606 -741 ct 1645 -632 1664 -518 1664 -399 ct 1664 -264 1638 -133 1586 -7 ct 
1534 120 1471 230 1397 324 ct p ef
pom
pum
15412 18518 t
360 324 m  285 230 222 120 171 -7 ct 119 -133 93 -264 93 -399 ct 93 -518 112 -632 151 -741 ct 
196 -868 266 -994 360 -1120 ct 457 -1120 l  396 -1016 356 -942 337 -897 ct 306 -828 282 -756 265 -681 ct 
243 -587 232 -493 232 -398 ct 232 -157 307 84 457 324 ct 360 324 l  p ef
1009 -130 m  1009 0 l  281 0 l  280 -33 285 -64 296 -94 ct 315 -144 345 -192 385 -240 ct 
426 -289 485 -344 562 -407 ct 682 -505 763 -583 805 -641 ct 847 -698 868 -752 868 -803 ct 
868 -857 849 -902 811 -939 ct 772 -976 722 -994 661 -994 ct 596 -994 544 -975 505 -935 ct 
465 -896 446 -842 445 -773 ct 306 -787 l  316 -891 351 -970 414 -1024 ct 476 -1079 559 -1106 664 -1106 ct 
770 -1106 853 -1077 915 -1018 ct 976 -959 1007 -887 1007 -800 ct 1007 -756 998 -713 980 -670 ct 
962 -628 932 -583 890 -536 ct 849 -489 779 -424 682 -342 ct 601 -274 549 -228 526 -203 ct 
503 -179 483 -155 468 -130 ct 1009 -130 l  p ef
759 0 m  759 -154 l  913 -154 l  913 0 l  913 57 903 102 883 137 ct 863 172 831 199 787 218 ct 
750 160 l  778 148 799 129 813 105 ct 826 81 834 46 835 0 ct 759 0 l  p ef
1392 0 m  1257 0 l  1257 -862 l  1225 -831 1182 -800 1129 -769 ct 1076 -738 1029 -714 987 -699 ct 
987 -830 l  1062 -865 1128 -908 1185 -959 ct 1242 -1009 1282 -1058 1305 -1106 ct 
1392 -1106 l  1392 0 l  p ef
1397 324 m  1300 324 l  1450 84 1525 -157 1525 -398 ct 1525 -492 1514 -586 1493 -678 ct 
1476 -753 1452 -826 1421 -895 ct 1402 -940 1361 -1015 1300 -1120 ct 1397 -1120 l 
1491 -994 1561 -868 1606 -741 ct 1645 -632 1664 -518 1664 -399 ct 1664 -264 1638 -133 1586 -7 ct 
1534 120 1471 230 1397 324 ct p ef
pom
pum
11661 25455 t
360 324 m  285 230 222 120 171 -7 ct 119 -133 93 -264 93 -399 ct 93 -518 112 -632 151 -741 ct 
196 -868 266 -994 360 -1120 ct 457 -1120 l  396 -1016 356 -942 337 -897 ct 306 -828 282 -756 265 -681 ct 
243 -587 232 -493 232 -398 ct 232 -157 307 84 457 324 ct 360 324 l  p ef
807 0 m  672 0 l  672 -862 l  640 -831 597 -800 544 -769 ct 491 -738 444 -714 402 -699 ct 
402 -830 l  477 -865 543 -908 600 -959 ct 657 -1009 697 -1058 720 -1106 ct 807 -1106 l 
807 0 l  p ef
759 0 m  759 -154 l  913 -154 l  913 0 l  913 57 903 102 883 137 ct 863 172 831 199 787 218 ct 
750 160 l  778 148 799 129 813 105 ct 826 81 834 46 835 0 ct 759 0 l  p ef
1594 -130 m  1594 0 l  866 0 l  865 -33 870 -64 881 -94 ct 900 -144 930 -192 970 -240 ct 
1011 -289 1070 -344 1147 -407 ct 1267 -505 1348 -583 1390 -641 ct 1432 -698 1453 -752 1453 -803 ct 
1453 -857 1434 -902 1396 -939 ct 1357 -976 1307 -994 1246 -994 ct 1181 -994 1129 -975 1090 -935 ct 
1050 -896 1031 -842 1030 -773 ct 891 -787 l  901 -891 936 -970 999 -1024 ct 
1061 -1079 1144 -1106 1249 -1106 ct 1355 -1106 1438 -1077 1500 -1018 ct 1561 -959 1592 -887 1592 -800 ct 
1592 -756 1583 -713 1565 -670 ct 1547 -628 1517 -583 1475 -536 ct 1434 -489 1364 -424 1267 -342 ct 
1186 -274 1134 -228 1111 -203 ct 1088 -179 1068 -155 1053 -130 ct 1594 -130 l 
p ef
1397 324 m  1300 324 l  1450 84 1525 -157 1525 -398 ct 1525 -492 1514 -586 1493 -678 ct 
1476 -753 1452 -826 1421 -895 ct 1402 -940 1361 -1015 1300 -1120 ct 1397 -1120 l 
1491 -994 1561 -868 1606 -741 ct 1645 -632 1664 -518 1664 -399 ct 1664 -264 1638 -133 1586 -7 ct 
1534 120 1471 230 1397 324 ct p ef
pom
1 lw 6728 7515 m  18141 7515 l  ps
6410 7514 m  6742 7757 l  6742 7272 l  6410 7514 l  p ef
18457 7514 m  18126 7272 l  18126 7757 l  18457 7514 l  p ef
0 lw 6410 7999 m  6410 7029 l  ps
18457 7999 m  18457 7029 l  ps
pum
11443 7093 t
76 0 m  76 -734 l  222 -734 l  396 -214 l  412 -166 424 -130 431 -106 ct 
439 -132 452 -172 470 -223 ct 646 -734 l  776 -734 l  776 0 l  683 0 l  683 -615 l 
469 0 l  382 0 l  170 -625 l  170 0 l  76 0 l  p ef
464 0 m  464 -734 l  610 -734 l  784 -214 l  800 -166 812 -130 819 -106 ct 
827 -132 840 -172 858 -223 ct 1034 -734 l  1164 -734 l  1164 0 l  1071 0 l 
1071 -615 l  857 0 l  770 0 l  558 -625 l  558 0 l  464 0 l  p ef
1319 -432 m  834 -432 l  834 -516 l  1319 -516 l  1319 -432 l  p
1319 -209 m  834 -209 l  834 -293 l  1319 -293 l  1319 -209 l  p ef
1124 0 m  1124 -734 l  1270 -734 l  1444 -214 l  1460 -166 1472 -130 1479 -106 ct 
1487 -132 1500 -172 1518 -223 ct 1694 -734 l  1824 -734 l  1824 0 l  1731 0 l 
1731 -615 l  1517 0 l  1430 0 l  1218 -625 l  1218 0 l  1124 0 l  p ef
1694 -119 m  1694 -320 l  1494 -320 l  1494 -404 l  1694 -404 l  1694 -604 l 
1779 -604 l  1779 -404 l  1979 -404 l  1979 -320 l  1779 -320 l  1779 -119 l 
1694 -119 l  p ef
2224 -87 m  2224 0 l  1739 0 l  1738 -22 1742 -43 1750 -63 ct 1762 -96 1782 -128 1809 -160 ct 
1836 -192 1875 -230 1927 -272 ct 2006 -337 2060 -389 2088 -427 ct 2116 -465 2130 -502 2130 -536 ct 
2130 -571 2118 -602 2092 -626 ct 2067 -651 2033 -663 1992 -663 ct 1949 -663 1914 -650 1888 -624 ct 
1862 -598 1849 -562 1849 -516 ct 1756 -525 l  1762 -594 1786 -647 1828 -683 ct 
1869 -720 1925 -738 1994 -738 ct 2065 -738 2120 -718 2161 -679 ct 2202 -640 2223 -591 2223 -534 ct 
2223 -504 2217 -475 2205 -447 ct 2193 -419 2173 -389 2145 -357 ct 2117 -326 2071 -283 2006 -228 ct 
1952 -183 1918 -152 1902 -136 ct 1887 -119 1874 -103 1864 -87 ct 2224 -87 l 
p ef
pom
1 lw 19232 8695 m  19232 28393 l  ps
19231 7999 m  19121 8726 l  19342 8726 l  19231 7999 l  p ef
19231 29089 m  19342 28361 l  19121 28361 l  19231 29089 l  p ef
0 lw 18457 7999 m  19452 7999 l  ps
18457 29089 m  19452 29089 l  ps
pum
19030 20522 t
90.0 r 78 0 m  78 -734 l  178 -734 l  563 -158 l  563 -734 l  656 -734 l 
656 0 l  557 0 l  171 -577 l  171 0 l  78 0 l  p ef
415 0 m  415 -734 l  515 -734 l  900 -158 l  900 -734 l  993 -734 l  993 0 l 
894 0 l  508 -577 l  508 0 l  415 0 l  p ef
1216 -432 m  731 -432 l  731 -516 l  1216 -516 l  1216 -432 l  p
1216 -209 m  731 -209 l  731 -293 l  1216 -293 l  1216 -209 l  p ef
1023 0 m  1023 -734 l  1123 -734 l  1508 -158 l  1508 -734 l  1601 -734 l 
1601 0 l  1502 0 l  1116 -577 l  1116 0 l  1023 0 l  p ef
1539 -119 m  1539 -320 l  1339 -320 l  1339 -404 l  1539 -404 l  1539 -604 l 
1624 -604 l  1624 -404 l  1824 -404 l  1824 -320 l  1624 -320 l  1624 -119 l 
1539 -119 l  p ef
2069 -87 m  2069 0 l  1584 0 l  1583 -22 1587 -43 1595 -63 ct 1607 -96 1627 -128 1654 -160 ct 
1681 -192 1720 -230 1772 -272 ct 1851 -337 1905 -389 1933 -427 ct 1961 -465 1975 -502 1975 -536 ct 
1975 -571 1963 -602 1937 -626 ct 1912 -651 1878 -663 1837 -663 ct 1794 -663 1759 -650 1733 -624 ct 
1707 -598 1694 -562 1694 -516 ct 1601 -525 l  1607 -594 1631 -647 1673 -683 ct 
1714 -720 1770 -738 1839 -738 ct 1910 -738 1965 -718 2006 -679 ct 2047 -640 2068 -591 2068 -534 ct 
2068 -504 2062 -475 2050 -447 ct 2038 -419 2018 -389 1990 -357 ct 1962 -326 1916 -283 1851 -228 ct 
1797 -183 1763 -152 1747 -136 ct 1732 -119 1719 -103 1709 -87 ct 2069 -87 l 
p ef
pom
1 lw 6963 9907 m  6963 27181 l  ps
6963 9211 m  6852 9938 l  7073 9938 l  6963 9211 l  p ef
6963 27877 m  7073 27149 l  6852 27149 l  6963 27877 l  p ef
0 lw 6742 9211 m  6742 9211 l  pc
6742 27877 m  6742 27877 l  pc
pum
6239 18918 t
90.0 r 78 0 m  78 -734 l  178 -734 l  563 -158 l  563 -734 l  656 -734 l 
656 0 l  557 0 l  171 -577 l  171 0 l  78 0 l  p ef
pom
1 lw 7280 28362 m  17588 28362 l  ps
6963 28361 m  7294 28604 l  7294 28119 l  6963 28361 l  p ef
17905 28361 m  17573 28119 l  17573 28604 l  17905 28361 l  p ef
0 lw 6963 27877 m  6963 27877 l  pc
17905 27877 m  17905 27877 l  pc
pum
12240 27940 t
76 0 m  76 -734 l  222 -734 l  396 -214 l  412 -166 424 -130 431 -106 ct 
439 -132 452 -172 470 -223 ct 646 -734 l  776 -734 l  776 0 l  683 0 l  683 -615 l 
469 0 l  382 0 l  170 -625 l  170 0 l  76 0 l  p ef
pom
1 lw 7391 20605 m  10293 20605 l  ps
7073 20604 m  7405 20847 l  7405 20362 l  7073 20604 l  p ef
10610 20604 m  10278 20362 l  10278 20847 l  10610 20604 l  p ef
0 lw 7073 22301 m  7073 20119 l  ps
10610 22301 m  10610 20119 l  ps
pum
8453 20183 t
68 0 m  68 -532 l  148 -532 l  148 -457 l  165 -483 187 -504 215 -520 ct 
242 -536 274 -544 309 -544 ct 349 -544 381 -536 406 -519 ct 431 -503 449 -480 459 -451 ct 
502 -513 556 -544 624 -544 ct 676 -544 717 -529 745 -500 ct 774 -471 788 -426 788 -365 ct 
788 0 l  698 0 l  698 -335 l  698 -371 695 -397 689 -413 ct 684 -429 673 -442 658 -451 ct 
642 -461 624 -466 604 -466 ct 566 -466 535 -453 511 -429 ct 486 -404 473 -364 473 -309 ct 
473 0 l  383 0 l  383 -346 l  383 -386 376 -416 361 -436 ct 347 -456 323 -466 289 -466 ct 
264 -466 240 -459 219 -446 ct 197 -432 182 -413 172 -387 ct 163 -362 158 -324 158 -276 ct 
158 0 l  68 0 l  p ef
456 0 m  456 -532 l  536 -532 l  536 -457 l  553 -483 575 -504 603 -520 ct 
630 -536 662 -544 697 -544 ct 737 -544 769 -536 794 -519 ct 819 -503 837 -480 847 -451 ct 
890 -513 944 -544 1012 -544 ct 1064 -544 1105 -529 1133 -500 ct 1162 -471 1176 -426 1176 -365 ct 
1176 0 l  1086 0 l  1086 -335 l  1086 -371 1083 -397 1077 -413 ct 1072 -429 1061 -442 1046 -451 ct 
1030 -461 1012 -466 992 -466 ct 954 -466 923 -453 899 -429 ct 874 -404 861 -364 861 -309 ct 
861 0 l  771 0 l  771 -346 l  771 -386 764 -416 749 -436 ct 735 -456 711 -466 677 -466 ct 
652 -466 628 -459 607 -446 ct 585 -432 570 -413 560 -387 ct 551 -362 546 -324 546 -276 ct 
546 0 l  456 0 l  p ef
pom
1 lw 10168 21364 m  10168 15725 l  ps
10168 22059 m  10278 21332 l  10057 21332 l  10168 22059 l  p ef
10168 15029 m  10057 15756 l  10278 15756 l  10168 15029 l  p ef
0 lw 10942 22059 m  9947 22059 l  ps
10942 15029 m  9947 15029 l  ps
pum
9976 19114 t
90.0 r 68 0 m  68 -532 l  149 -532 l  149 -456 l  188 -515 244 -544 318 -544 ct 
350 -544 379 -538 406 -527 ct 433 -515 453 -500 466 -481 ct 480 -463 489 -440 494 -415 ct 
498 -398 499 -369 499 -327 ct 499 0 l  409 0 l  409 -324 l  409 -360 406 -388 399 -406 ct 
392 -424 379 -439 362 -450 ct 344 -460 323 -466 299 -466 ct 260 -466 227 -454 199 -429 ct 
172 -405 158 -359 158 -291 ct 158 0 l  68 0 l  p ef
330 0 m  330 -532 l  411 -532 l  411 -456 l  450 -515 506 -544 580 -544 ct 
612 -544 641 -538 668 -527 ct 695 -515 715 -500 728 -481 ct 742 -463 751 -440 756 -415 ct 
760 -398 761 -369 761 -327 ct 761 0 l  671 0 l  671 -324 l  671 -360 668 -388 661 -406 ct 
654 -424 641 -439 624 -450 ct 606 -460 585 -466 561 -466 ct 522 -466 489 -454 461 -429 ct 
434 -405 420 -359 420 -291 ct 420 0 l  330 0 l  p ef
pom
7128 14786 m  7222 14786 7294 14944 7294 15150 ct 7294 15356 7222 15514 7128 15514 ct 
7035 15514 6963 15356 6963 15150 ct 6963 14944 7035 14786 7128 14786 ct p ef
0.368 c 7128 14786 m  7222 14786 7294 14944 7294 15150 ct 7294 15356 7222 15514 7128 15514 ct 
7035 15514 6963 15356 6963 15150 ct 6963 14944 7035 14786 7128 14786 ct pc
6963 14786 m  6963 14786 l  pc
7295 15516 m  7295 15516 l  pc
1 lw 0.000 c 7074 15272 m  4454 15272 l  ps
3978 15271 m  4476 15635 l  4476 14908 l  3978 15271 l  p ef
pum
2376 14326 t
240 216 m  190 153 148 80 114 -4 ct 79 -89 62 -176 62 -266 ct 62 -345 75 -422 101 -494 ct 
131 -579 177 -663 240 -747 ct 304 -747 l  264 -677 237 -628 224 -598 ct 204 -552 188 -504 176 -454 ct 
162 -391 155 -328 155 -265 ct 155 -105 205 56 304 216 ct 240 216 l  p ef
187 -159 m  276 -173 l  281 -137 295 -110 317 -91 ct 340 -72 372 -62 413 -62 ct 
455 -62 485 -71 505 -87 ct 525 -104 535 -124 535 -147 ct 535 -167 527 -183 509 -195 ct 
497 -203 466 -213 417 -225 ct 351 -242 305 -257 279 -269 ct 254 -281 234 -298 221 -319 ct 
208 -341 202 -365 202 -391 ct 202 -414 207 -436 218 -457 ct 229 -477 243 -494 262 -507 ct 
276 -517 295 -526 319 -533 ct 344 -540 370 -544 397 -544 ct 439 -544 476 -538 507 -526 ct 
539 -514 562 -498 577 -477 ct 592 -457 602 -429 608 -395 ct 520 -383 l  516 -410 504 -431 485 -447 ct 
466 -462 439 -470 404 -470 ct 362 -470 333 -463 315 -449 ct 297 -436 289 -420 289 -401 ct 
289 -390 292 -379 300 -370 ct 307 -360 319 -352 334 -346 ct 343 -342 370 -335 414 -323 ct 
477 -306 522 -292 547 -281 ct 572 -270 592 -254 606 -233 ct 621 -213 628 -187 628 -156 ct 
628 -126 619 -98 602 -71 ct 584 -45 559 -24 526 -10 ct 493 5 455 12 414 12 ct 345 12 292 -2 256 -31 ct 
220 -60 197 -102 187 -159 ct p ef
652 -81 m  665 -1 l  640 4 617 7 597 7 ct 565 7 539 2 521 -9 ct 503 -19 490 -33 483 -49 ct 
476 -66 472 -102 472 -156 ct 472 -462 l  406 -462 l  406 -532 l  472 -532 l 
472 -664 l  562 -718 l  562 -532 l  652 -532 l  652 -462 l  562 -462 l 
562 -151 l  562 -125 563 -109 566 -101 ct 570 -94 575 -88 582 -84 ct 589 -79 599 -77 613 -77 ct 
623 -77 636 -78 652 -81 ct p ef
933 -66 m  900 -37 868 -17 837 -6 ct 806 6 773 12 738 12 ct 679 12 634 -2 603 -31 ct 
572 -59 556 -96 556 -140 ct 556 -166 562 -190 574 -212 ct 586 -233 601 -250 620 -263 ct 
640 -277 661 -286 685 -293 ct 703 -298 730 -302 765 -307 ct 838 -315 892 -326 926 -338 ct 
926 -350 926 -358 926 -361 ct 926 -398 918 -424 901 -439 ct 878 -459 844 -469 798 -469 ct 
756 -469 725 -462 704 -447 ct 684 -432 669 -406 660 -368 ct 572 -380 l  580 -418 593 -448 611 -472 ct 
629 -495 656 -513 691 -525 ct 725 -538 766 -544 811 -544 ct 857 -544 894 -539 922 -528 ct 
950 -517 971 -504 984 -488 ct 998 -471 1007 -451 1012 -426 ct 1015 -411 1017 -383 1017 -343 ct 
1017 -223 l  1017 -139 1019 -86 1023 -64 ct 1027 -42 1034 -20 1046 0 ct 951 0 l 
942 -19 936 -41 933 -66 ct p
926 -267 m  893 -254 844 -242 779 -233 ct 742 -228 716 -222 700 -215 ct 685 -208 673 -198 665 -186 ct 
656 -173 652 -158 652 -143 ct 652 -119 661 -99 679 -83 ct 698 -67 724 -59 759 -59 ct 
794 -59 825 -66 852 -81 ct 879 -97 899 -117 911 -144 ct 921 -164 926 -194 926 -234 ct 
926 -267 l  p ef
848 0 m  848 -532 l  929 -532 l  929 -451 l  949 -489 968 -514 986 -526 ct 
1003 -538 1023 -544 1044 -544 ct 1074 -544 1105 -534 1136 -515 ct 1105 -431 l 
1083 -444 1061 -451 1039 -451 ct 1020 -451 1002 -445 986 -433 ct 971 -421 959 -405 953 -384 ct 
943 -352 938 -317 938 -279 ct 938 0 l  848 0 l  p ef
1200 -81 m  1213 -1 l  1188 4 1165 7 1145 7 ct 1113 7 1087 2 1069 -9 ct 1051 -19 1038 -33 1031 -49 ct 
1024 -66 1020 -102 1020 -156 ct 1020 -462 l  954 -462 l  954 -532 l  1020 -532 l 
1020 -664 l  1110 -718 l  1110 -532 l  1200 -532 l  1200 -462 l  1110 -462 l 
1110 -151 l  1110 -125 1111 -109 1114 -101 ct 1118 -94 1123 -88 1130 -84 ct 
1137 -79 1147 -77 1161 -77 ct 1171 -77 1184 -78 1200 -81 ct p ef
1135 0 m  1135 -532 l  1215 -532 l  1215 -457 l  1232 -483 1254 -504 1282 -520 ct 
1309 -536 1341 -544 1376 -544 ct 1416 -544 1448 -536 1473 -519 ct 1498 -503 1516 -480 1526 -451 ct 
1569 -513 1623 -544 1691 -544 ct 1743 -544 1784 -529 1812 -500 ct 1841 -471 1855 -426 1855 -365 ct 
1855 0 l  1765 0 l  1765 -335 l  1765 -371 1762 -397 1756 -413 ct 1751 -429 1740 -442 1725 -451 ct 
1709 -461 1691 -466 1671 -466 ct 1633 -466 1602 -453 1578 -429 ct 1553 -404 1540 -364 1540 -309 ct 
1540 0 l  1450 0 l  1450 -346 l  1450 -386 1443 -416 1428 -436 ct 1414 -456 1390 -466 1356 -466 ct 
1331 -466 1307 -459 1286 -446 ct 1264 -432 1249 -413 1239 -387 ct 1230 -362 1225 -324 1225 -276 ct 
1225 0 l  1135 0 l  p ef
1547 0 m  1547 -103 l  1650 -103 l  1650 0 l  1650 38 1643 68 1630 91 ct 
1616 115 1595 133 1566 145 ct 1541 107 l  1560 98 1574 86 1583 70 ct 1592 54 1597 30 1598 0 ct 
1547 0 l  p ef
1618 -159 m  1707 -173 l  1712 -137 1726 -110 1748 -91 ct 1771 -72 1803 -62 1844 -62 ct 
1886 -62 1916 -71 1936 -87 ct 1956 -104 1966 -124 1966 -147 ct 1966 -167 1958 -183 1940 -195 ct 
1928 -203 1897 -213 1848 -225 ct 1782 -242 1736 -257 1710 -269 ct 1685 -281 1665 -298 1652 -319 ct 
1639 -341 1633 -365 1633 -391 ct 1633 -414 1638 -436 1649 -457 ct 1660 -477 1674 -494 1693 -507 ct 
1707 -517 1726 -526 1750 -533 ct 1775 -540 1801 -544 1828 -544 ct 1870 -544 1907 -538 1938 -526 ct 
1970 -514 1993 -498 2008 -477 ct 2023 -457 2033 -429 2039 -395 ct 1951 -383 l 
1947 -410 1935 -431 1916 -447 ct 1897 -462 1870 -470 1835 -470 ct 1793 -470 1764 -463 1746 -449 ct 
1728 -436 1720 -420 1720 -401 ct 1720 -390 1723 -379 1731 -370 ct 1738 -360 1750 -352 1765 -346 ct 
1774 -342 1801 -335 1845 -323 ct 1908 -306 1953 -292 1978 -281 ct 2003 -270 2023 -254 2037 -233 ct 
2052 -213 2059 -187 2059 -156 ct 2059 -126 2050 -98 2033 -71 ct 2015 -45 1990 -24 1957 -10 ct 
1924 5 1886 12 1845 12 ct 1776 12 1723 -2 1687 -31 ct 1651 -60 1628 -102 1618 -159 ct 
p ef
2084 -81 m  2097 -1 l  2072 4 2049 7 2029 7 ct 1997 7 1971 2 1953 -9 ct 1935 -19 1922 -33 1915 -49 ct 
1908 -66 1904 -102 1904 -156 ct 1904 -462 l  1838 -462 l  1838 -532 l  1904 -532 l 
1904 -664 l  1994 -718 l  1994 -532 l  2084 -532 l  2084 -462 l  1994 -462 l 
1994 -151 l  1994 -125 1995 -109 1998 -101 ct 2002 -94 2007 -88 2014 -84 ct 
2021 -79 2031 -77 2045 -77 ct 2055 -77 2068 -78 2084 -81 ct p ef
2365 -66 m  2332 -37 2300 -17 2269 -6 ct 2238 6 2205 12 2170 12 ct 2111 12 2066 -2 2035 -31 ct 
2004 -59 1988 -96 1988 -140 ct 1988 -166 1994 -190 2006 -212 ct 2018 -233 2033 -250 2052 -263 ct 
2072 -277 2093 -286 2117 -293 ct 2135 -298 2162 -302 2197 -307 ct 2270 -315 2324 -326 2358 -338 ct 
2358 -350 2358 -358 2358 -361 ct 2358 -398 2350 -424 2333 -439 ct 2310 -459 2276 -469 2230 -469 ct 
2188 -469 2157 -462 2136 -447 ct 2116 -432 2101 -406 2092 -368 ct 2004 -380 l 
2012 -418 2025 -448 2043 -472 ct 2061 -495 2088 -513 2123 -525 ct 2157 -538 2198 -544 2243 -544 ct 
2289 -544 2326 -539 2354 -528 ct 2382 -517 2403 -504 2416 -488 ct 2430 -471 2439 -451 2444 -426 ct 
2447 -411 2449 -383 2449 -343 ct 2449 -223 l  2449 -139 2451 -86 2455 -64 ct 
2459 -42 2466 -20 2478 0 ct 2383 0 l  2374 -19 2368 -41 2365 -66 ct p
2358 -267 m  2325 -254 2276 -242 2211 -233 ct 2174 -228 2148 -222 2132 -215 ct 
2117 -208 2105 -198 2097 -186 ct 2088 -173 2084 -158 2084 -143 ct 2084 -119 2093 -99 2111 -83 ct 
2130 -67 2156 -59 2191 -59 ct 2226 -59 2257 -66 2284 -81 ct 2311 -97 2331 -117 2343 -144 ct 
2353 -164 2358 -194 2358 -234 ct 2358 -267 l  p ef
2280 0 m  2280 -532 l  2361 -532 l  2361 -451 l  2381 -489 2400 -514 2418 -526 ct 
2435 -538 2455 -544 2476 -544 ct 2506 -544 2537 -534 2568 -515 ct 2537 -431 l 
2515 -444 2493 -451 2471 -451 ct 2452 -451 2434 -445 2418 -433 ct 2403 -421 2391 -405 2385 -384 ct 
2375 -352 2370 -317 2370 -279 ct 2370 0 l  2280 0 l  p ef
2631 -81 m  2644 -1 l  2619 4 2596 7 2576 7 ct 2544 7 2518 2 2500 -9 ct 2482 -19 2469 -33 2462 -49 ct 
2455 -66 2451 -102 2451 -156 ct 2451 -462 l  2385 -462 l  2385 -532 l  2451 -532 l 
2451 -664 l  2541 -718 l  2541 -532 l  2631 -532 l  2631 -462 l  2541 -462 l 
2541 -151 l  2541 -125 2542 -109 2545 -101 ct 2549 -94 2554 -88 2561 -84 ct 
2568 -79 2578 -77 2592 -77 ct 2602 -77 2615 -78 2631 -81 ct p ef
2567 0 m  2567 -532 l  2648 -532 l  2648 -456 l  2687 -515 2743 -544 2817 -544 ct 
2849 -544 2878 -538 2905 -527 ct 2932 -515 2952 -500 2965 -481 ct 2979 -463 2988 -440 2993 -415 ct 
2997 -398 2998 -369 2998 -327 ct 2998 0 l  2908 0 l  2908 -324 l  2908 -360 2905 -388 2898 -406 ct 
2891 -424 2878 -439 2861 -450 ct 2843 -460 2822 -466 2798 -466 ct 2759 -466 2726 -454 2698 -429 ct 
2671 -405 2657 -359 2657 -291 ct 2657 0 l  2567 0 l  p ef
2888 216 m  2823 216 l  2923 56 2973 -105 2973 -265 ct 2973 -328 2966 -390 2951 -452 ct 
2940 -502 2924 -550 2904 -596 ct 2891 -627 2864 -677 2823 -747 ct 2888 -747 l 
2950 -663 2997 -579 3027 -494 ct 3052 -422 3065 -345 3065 -266 ct 3065 -176 3048 -89 3014 -4 ct 
2979 80 2937 153 2888 216 ct p ef
pom
0.368 c 6569 6787 m  7026 6787 l  ps
6410 6787 m  6576 6908 l  6576 6666 l  6410 6787 l  p ef
7184 6787 m  7018 6666 l  7018 6908 l  7184 6787 l  p ef
5968 8346 m  5968 9107 l  ps
5968 7999 m  5913 8363 l  6023 8363 l  5968 7999 l  p ef
5968 9453 m  6023 9090 l  5913 9090 l  5968 9453 l  p ef
pum
6355 6094 t
0.000 c 45 136 m  45 -355 l  100 -355 l  100 -309 l  113 -327 127 -340 144 -349 ct 
160 -358 180 -363 203 -363 ct 233 -363 260 -355 283 -340 ct 306 -324 324 -302 335 -274 ct 
347 -245 353 -214 353 -180 ct 353 -144 347 -111 333 -82 ct 320 -53 302 -31 277 -15 ct 
252 0 226 8 198 8 ct 178 8 160 4 144 -5 ct 129 -13 115 -24 105 -37 ct 105 136 l 
45 136 l  p
100 -176 m  100 -130 109 -96 127 -74 ct 146 -52 168 -41 194 -41 ct 221 -41 244 -53 263 -75 ct 
282 -98 292 -133 292 -181 ct 292 -226 282 -260 264 -282 ct 245 -305 223 -316 197 -316 ct 
171 -316 149 -304 129 -280 ct 109 -256 100 -221 100 -176 ct p ef
451 -44 m  428 -25 407 -11 386 -4 ct 366 4 344 8 320 8 ct 281 8 251 -2 230 -21 ct 
209 -40 199 -64 199 -94 ct 199 -111 203 -127 211 -141 ct 218 -156 229 -167 242 -176 ct 
254 -185 269 -191 285 -196 ct 297 -199 315 -202 338 -205 ct 387 -210 423 -217 446 -225 ct 
446 -234 446 -239 446 -241 ct 446 -266 440 -283 429 -293 ct 413 -306 391 -313 360 -313 ct 
332 -313 311 -308 298 -298 ct 284 -288 274 -271 268 -246 ct 209 -254 l  214 -279 223 -299 235 -315 ct 
248 -330 265 -342 289 -350 ct 312 -359 339 -363 369 -363 ct 399 -363 424 -359 443 -352 ct 
462 -345 476 -336 485 -325 ct 494 -315 500 -301 503 -284 ct 505 -274 506 -256 506 -229 ct 
506 -149 l  506 -93 508 -57 510 -43 ct 513 -28 518 -14 525 0 ct 463 0 l  456 -13 452 -27 451 -44 ct 
p
446 -178 m  424 -169 391 -162 347 -155 ct 323 -152 305 -148 295 -143 ct 285 -139 277 -132 271 -124 ct 
266 -115 263 -106 263 -95 ct 263 -79 269 -66 281 -55 ct 293 -44 311 -39 334 -39 ct 
357 -39 378 -44 396 -54 ct 414 -64 427 -78 436 -96 ct 442 -110 446 -130 446 -156 ct 
446 -178 l  p ef
621 0 m  621 -45 l  599 -10 566 8 522 8 ct 494 8 468 0 444 -15 ct 420 -31 402 -53 389 -81 ct 
376 -109 369 -141 369 -177 ct 369 -213 375 -245 387 -274 ct 399 -302 417 -325 440 -340 ct 
464 -355 490 -363 519 -363 ct 541 -363 560 -358 576 -349 ct 593 -340 607 -329 617 -314 ct 
617 -490 l  677 -490 l  677 0 l  621 0 l  p
431 -177 m  431 -132 441 -98 460 -75 ct 479 -53 502 -41 528 -41 ct 554 -41 576 -52 595 -74 ct 
613 -95 622 -128 622 -172 ct 622 -221 613 -256 594 -279 ct 575 -302 552 -313 525 -313 ct 
498 -313 476 -302 458 -280 ct 440 -259 431 -224 431 -177 ct p ef
564 0 m  564 -355 l  618 -355 l  618 -305 l  629 -323 644 -337 662 -347 ct 
681 -358 702 -363 725 -363 ct 752 -363 773 -358 790 -347 ct 807 -336 819 -320 826 -301 ct 
854 -342 890 -363 935 -363 ct 970 -363 997 -353 1016 -334 ct 1035 -314 1045 -284 1045 -244 ct 
1045 0 l  985 0 l  985 -224 l  985 -248 983 -265 979 -276 ct 975 -286 968 -295 958 -301 ct 
948 -308 936 -311 922 -311 ct 897 -311 876 -303 860 -286 ct 843 -269 835 -243 835 -206 ct 
835 0 l  775 0 l  775 -231 l  775 -257 770 -277 760 -291 ct 750 -304 734 -311 712 -311 ct 
695 -311 679 -306 665 -297 ct 651 -289 640 -276 634 -258 ct 627 -241 624 -216 624 -184 ct 
624 0 l  564 0 l  p ef
pom
pum
5139 8928 t
45 136 m  45 -355 l  100 -355 l  100 -309 l  113 -327 127 -340 144 -349 ct 
160 -358 180 -363 203 -363 ct 233 -363 260 -355 283 -340 ct 306 -324 324 -302 335 -274 ct 
347 -245 353 -214 353 -180 ct 353 -144 347 -111 333 -82 ct 320 -53 302 -31 277 -15 ct 
252 0 226 8 198 8 ct 178 8 160 4 144 -5 ct 129 -13 115 -24 105 -37 ct 105 136 l 
45 136 l  p
100 -176 m  100 -130 109 -96 127 -74 ct 146 -52 168 -41 194 -41 ct 221 -41 244 -53 263 -75 ct 
282 -98 292 -133 292 -181 ct 292 -226 282 -260 264 -282 ct 245 -305 223 -316 197 -316 ct 
171 -316 149 -304 129 -280 ct 109 -256 100 -221 100 -176 ct p ef
451 -44 m  428 -25 407 -11 386 -4 ct 366 4 344 8 320 8 ct 281 8 251 -2 230 -21 ct 
209 -40 199 -64 199 -94 ct 199 -111 203 -127 211 -141 ct 218 -156 229 -167 242 -176 ct 
254 -185 269 -191 285 -196 ct 297 -199 315 -202 338 -205 ct 387 -210 423 -217 446 -225 ct 
446 -234 446 -239 446 -241 ct 446 -266 440 -283 429 -293 ct 413 -306 391 -313 360 -313 ct 
332 -313 311 -308 298 -298 ct 284 -288 274 -271 268 -246 ct 209 -254 l  214 -279 223 -299 235 -315 ct 
248 -330 265 -342 289 -350 ct 312 -359 339 -363 369 -363 ct 399 -363 424 -359 443 -352 ct 
462 -345 476 -336 485 -325 ct 494 -315 500 -301 503 -284 ct 505 -274 506 -256 506 -229 ct 
506 -149 l  506 -93 508 -57 510 -43 ct 513 -28 518 -14 525 0 ct 463 0 l  456 -13 452 -27 451 -44 ct 
p
446 -178 m  424 -169 391 -162 347 -155 ct 323 -152 305 -148 295 -143 ct 285 -139 277 -132 271 -124 ct 
266 -115 263 -106 263 -95 ct 263 -79 269 -66 281 -55 ct 293 -44 311 -39 334 -39 ct 
357 -39 378 -44 396 -54 ct 414 -64 427 -78 436 -96 ct 442 -110 446 -130 446 -156 ct 
446 -178 l  p ef
621 0 m  621 -45 l  599 -10 566 8 522 8 ct 494 8 468 0 444 -15 ct 420 -31 402 -53 389 -81 ct 
376 -109 369 -141 369 -177 ct 369 -213 375 -245 387 -274 ct 399 -302 417 -325 440 -340 ct 
464 -355 490 -363 519 -363 ct 541 -363 560 -358 576 -349 ct 593 -340 607 -329 617 -314 ct 
617 -490 l  677 -490 l  677 0 l  621 0 l  p
431 -177 m  431 -132 441 -98 460 -75 ct 479 -53 502 -41 528 -41 ct 554 -41 576 -52 595 -74 ct 
613 -95 622 -128 622 -172 ct 622 -221 613 -256 594 -279 ct 575 -302 552 -313 525 -313 ct 
498 -313 476 -302 458 -280 ct 440 -259 431 -224 431 -177 ct p ef
564 0 m  564 -355 l  618 -355 l  618 -305 l  644 -344 682 -363 731 -363 ct 
752 -363 772 -359 790 -351 ct 808 -344 821 -334 830 -321 ct 839 -309 845 -294 849 -277 ct 
851 -266 852 -246 852 -218 ct 852 0 l  792 0 l  792 -216 l  792 -240 790 -259 785 -271 ct 
781 -283 772 -293 760 -300 ct 748 -307 734 -311 718 -311 ct 693 -311 671 -303 652 -286 ct 
634 -270 624 -239 624 -194 ct 624 0 l  564 0 l  p ef
pom
0 lw 10610 21574 m  14257 21574 l  ps
14036 15029 m  14036 22059 l  ps
14257 15514 m  10610 15514 l  ps
10831 15029 m  10831 22059 l  ps
0.588 c 12268 21232 m  12434 20847 l  12601 21232 l  12517 21232 l  12517 22401 l 
12601 22401 l  12434 22788 l  12268 22401 l  12351 22401 l  12351 21232 l 
12268 21232 l  p ef
0.368 c 12268 21232 m  12434 20847 l  12601 21232 l  12517 21232 l  12517 22401 l 
12601 22401 l  12434 22788 l  12268 22401 l  12351 22401 l  12351 21232 l 
12268 21232 l  pc
12268 20847 m  12268 20847 l  pc
12601 22788 m  12601 22788 l  pc
0.588 c 13705 18301 m  13903 17938 l  13903 18120 l  14502 18120 l  14502 17938 l 
14701 18301 l  14502 18667 l  14502 18483 l  13903 18483 l  13903 18667 l 
13705 18301 l  p ef
0.368 c 13705 18301 m  13903 17938 l  13903 18120 l  14502 18120 l  14502 17938 l 
14701 18301 l  14502 18667 l  14502 18483 l  13903 18483 l  13903 18667 l 
13705 18301 l  pc
13705 17938 m  13705 17938 l  pc
14701 18667 m  14701 18667 l  pc
0.588 c 10278 18301 m  10454 17938 l  10454 18120 l  10987 18120 l  10987 17938 l 
11164 18301 l  10987 18667 l  10987 18483 l  10454 18483 l  10454 18667 l 
10278 18301 l  p ef
0.368 c 10278 18301 m  10454 17938 l  10454 18120 l  10987 18120 l  10987 17938 l 
11164 18301 l  10987 18667 l  10987 18483 l  10454 18483 l  10454 18667 l 
10278 18301 l  pc
10278 17938 m  10278 17938 l  pc
11164 18667 m  11164 18667 l  pc
0.588 c 12268 14687 m  12434 14302 l  12601 14687 l  12517 14687 l  12517 15855 l 
12601 15855 l  12434 16243 l  12268 15855 l  12351 15855 l  12351 14687 l 
12268 14687 l  p ef
0.368 c 12268 14687 m  12434 14302 l  12601 14687 l  12517 14687 l  12517 15855 l 
12601 15855 l  12434 16243 l  12268 15855 l  12351 15855 l  12351 14687 l 
12268 14687 l  pc
12268 14302 m  12268 14302 l  pc
12601 16243 m  12601 16243 l  pc
1 lw 18063 29574 m  18300 29574 l  ps
17905 29573 m  18071 29695 l  18071 29452 l  17905 29573 l  p ef
18457 29573 m  18292 29452 l  18292 29695 l  18457 29573 l  p ef
18568 28224 m  18568 28742 l  ps
18568 27877 m  18513 28240 l  18623 28240 l  18568 27877 l  p ef
18568 29089 m  18623 28725 l  18513 28725 l  18568 29089 l  p ef
pum
17408 30820 t
0.000 c 45 136 m  45 -355 l  100 -355 l  100 -309 l  113 -327 127 -340 144 -349 ct 
160 -358 180 -363 203 -363 ct 233 -363 260 -355 283 -340 ct 306 -324 324 -302 335 -274 ct 
347 -245 353 -214 353 -180 ct 353 -144 347 -111 333 -82 ct 320 -53 302 -31 277 -15 ct 
252 0 226 8 198 8 ct 178 8 160 4 144 -5 ct 129 -13 115 -24 105 -37 ct 105 136 l 
45 136 l  p
100 -176 m  100 -130 109 -96 127 -74 ct 146 -52 168 -41 194 -41 ct 221 -41 244 -53 263 -75 ct 
282 -98 292 -133 292 -181 ct 292 -226 282 -260 264 -282 ct 245 -305 223 -316 197 -316 ct 
171 -316 149 -304 129 -280 ct 109 -256 100 -221 100 -176 ct p ef
451 -44 m  428 -25 407 -11 386 -4 ct 366 4 344 8 320 8 ct 281 8 251 -2 230 -21 ct 
209 -40 199 -64 199 -94 ct 199 -111 203 -127 211 -141 ct 218 -156 229 -167 242 -176 ct 
254 -185 269 -191 285 -196 ct 297 -199 315 -202 338 -205 ct 387 -210 423 -217 446 -225 ct 
446 -234 446 -239 446 -241 ct 446 -266 440 -283 429 -293 ct 413 -306 391 -313 360 -313 ct 
332 -313 311 -308 298 -298 ct 284 -288 274 -271 268 -246 ct 209 -254 l  214 -279 223 -299 235 -315 ct 
248 -330 265 -342 289 -350 ct 312 -359 339 -363 369 -363 ct 399 -363 424 -359 443 -352 ct 
462 -345 476 -336 485 -325 ct 494 -315 500 -301 503 -284 ct 505 -274 506 -256 506 -229 ct 
506 -149 l  506 -93 508 -57 510 -43 ct 513 -28 518 -14 525 0 ct 463 0 l  456 -13 452 -27 451 -44 ct 
p
446 -178 m  424 -169 391 -162 347 -155 ct 323 -152 305 -148 295 -143 ct 285 -139 277 -132 271 -124 ct 
266 -115 263 -106 263 -95 ct 263 -79 269 -66 281 -55 ct 293 -44 311 -39 334 -39 ct 
357 -39 378 -44 396 -54 ct 414 -64 427 -78 436 -96 ct 442 -110 446 -130 446 -156 ct 
446 -178 l  p ef
621 0 m  621 -45 l  599 -10 566 8 522 8 ct 494 8 468 0 444 -15 ct 420 -31 402 -53 389 -81 ct 
376 -109 369 -141 369 -177 ct 369 -213 375 -245 387 -274 ct 399 -302 417 -325 440 -340 ct 
464 -355 490 -363 519 -363 ct 541 -363 560 -358 576 -349 ct 593 -340 607 -329 617 -314 ct 
617 -490 l  677 -490 l  677 0 l  621 0 l  p
431 -177 m  431 -132 441 -98 460 -75 ct 479 -53 502 -41 528 -41 ct 554 -41 576 -52 595 -74 ct 
613 -95 622 -128 622 -172 ct 622 -221 613 -256 594 -279 ct 575 -302 552 -313 525 -313 ct 
498 -313 476 -302 458 -280 ct 440 -259 431 -224 431 -177 ct p ef
564 0 m  564 -355 l  618 -355 l  618 -305 l  629 -323 644 -337 662 -347 ct 
681 -358 702 -363 725 -363 ct 752 -363 773 -358 790 -347 ct 807 -336 819 -320 826 -301 ct 
854 -342 890 -363 935 -363 ct 970 -363 997 -353 1016 -334 ct 1035 -314 1045 -284 1045 -244 ct 
1045 0 l  985 0 l  985 -224 l  985 -248 983 -265 979 -276 ct 975 -286 968 -295 958 -301 ct 
948 -308 936 -311 922 -311 ct 897 -311 876 -303 860 -286 ct 843 -269 835 -243 835 -206 ct 
835 0 l  775 0 l  775 -231 l  775 -257 770 -277 760 -291 ct 750 -304 734 -311 712 -311 ct 
695 -311 679 -306 665 -297 ct 651 -289 640 -276 634 -258 ct 627 -241 624 -216 624 -184 ct 
624 0 l  564 0 l  p ef
771 136 m  771 93 l  1169 93 l  1169 136 l  771 136 l  p ef
1000 0 m  1000 -355 l  1054 -355 l  1054 -305 l  1065 -323 1080 -337 1098 -347 ct 
1117 -358 1138 -363 1161 -363 ct 1188 -363 1209 -358 1226 -347 ct 1243 -336 1255 -320 1262 -301 ct 
1290 -342 1326 -363 1371 -363 ct 1406 -363 1433 -353 1452 -334 ct 1471 -314 1481 -284 1481 -244 ct 
1481 0 l  1421 0 l  1421 -224 l  1421 -248 1419 -265 1415 -276 ct 1411 -286 1404 -295 1394 -301 ct 
1384 -308 1372 -311 1358 -311 ct 1333 -311 1312 -303 1296 -286 ct 1279 -269 1271 -243 1271 -206 ct 
1271 0 l  1211 0 l  1211 -231 l  1211 -257 1206 -277 1196 -291 ct 1186 -304 1170 -311 1148 -311 ct 
1131 -311 1115 -306 1101 -297 ct 1087 -289 1076 -276 1070 -258 ct 1063 -241 1060 -216 1060 -184 ct 
1060 0 l  1000 0 l  p ef
1494 -44 m  1471 -25 1450 -11 1429 -4 ct 1409 4 1387 8 1363 8 ct 1324 8 1294 -2 1273 -21 ct 
1252 -40 1242 -64 1242 -94 ct 1242 -111 1246 -127 1254 -141 ct 1261 -156 1272 -167 1285 -176 ct 
1297 -185 1312 -191 1328 -196 ct 1340 -199 1358 -202 1381 -205 ct 1430 -210 1466 -217 1489 -225 ct 
1489 -234 1489 -239 1489 -241 ct 1489 -266 1483 -283 1472 -293 ct 1456 -306 1434 -313 1403 -313 ct 
1375 -313 1354 -308 1341 -298 ct 1327 -288 1317 -271 1311 -246 ct 1252 -254 l 
1257 -279 1266 -299 1278 -315 ct 1291 -330 1308 -342 1332 -350 ct 1355 -359 1382 -363 1412 -363 ct 
1442 -363 1467 -359 1486 -352 ct 1505 -345 1519 -336 1528 -325 ct 1537 -315 1543 -301 1546 -284 ct 
1548 -274 1549 -256 1549 -229 ct 1549 -149 l  1549 -93 1551 -57 1553 -43 ct 
1556 -28 1561 -14 1568 0 ct 1506 0 l  1499 -13 1495 -27 1494 -44 ct p
1489 -178 m  1467 -169 1434 -162 1390 -155 ct 1366 -152 1348 -148 1338 -143 ct 
1328 -139 1320 -132 1314 -124 ct 1309 -115 1306 -106 1306 -95 ct 1306 -79 1312 -66 1324 -55 ct 
1336 -44 1354 -39 1377 -39 ct 1400 -39 1421 -44 1439 -54 ct 1457 -64 1470 -78 1479 -96 ct 
1485 -110 1489 -130 1489 -156 ct 1489 -178 l  p ef
1394 0 m  1524 -185 l  1404 -355 l  1479 -355 l  1533 -272 l  1544 -256 1552 -243 1558 -232 ct 
1568 -247 1577 -260 1585 -271 ct 1645 -355 l  1717 -355 l  1594 -188 l  1726 0 l 
1652 0 l  1579 -110 l  1560 -140 l  1467 0 l  1394 0 l  p ef
pom
pum
18819 27911 t
45 136 m  45 -355 l  100 -355 l  100 -309 l  113 -327 127 -340 144 -349 ct 
160 -358 180 -363 203 -363 ct 233 -363 260 -355 283 -340 ct 306 -324 324 -302 335 -274 ct 
347 -245 353 -214 353 -180 ct 353 -144 347 -111 333 -82 ct 320 -53 302 -31 277 -15 ct 
252 0 226 8 198 8 ct 178 8 160 4 144 -5 ct 129 -13 115 -24 105 -37 ct 105 136 l 
45 136 l  p
100 -176 m  100 -130 109 -96 127 -74 ct 146 -52 168 -41 194 -41 ct 221 -41 244 -53 263 -75 ct 
282 -98 292 -133 292 -181 ct 292 -226 282 -260 264 -282 ct 245 -305 223 -316 197 -316 ct 
171 -316 149 -304 129 -280 ct 109 -256 100 -221 100 -176 ct p ef
451 -44 m  428 -25 407 -11 386 -4 ct 366 4 344 8 320 8 ct 281 8 251 -2 230 -21 ct 
209 -40 199 -64 199 -94 ct 199 -111 203 -127 211 -141 ct 218 -156 229 -167 242 -176 ct 
254 -185 269 -191 285 -196 ct 297 -199 315 -202 338 -205 ct 387 -210 423 -217 446 -225 ct 
446 -234 446 -239 446 -241 ct 446 -266 440 -283 429 -293 ct 413 -306 391 -313 360 -313 ct 
332 -313 311 -308 298 -298 ct 284 -288 274 -271 268 -246 ct 209 -254 l  214 -279 223 -299 235 -315 ct 
248 -330 265 -342 289 -350 ct 312 -359 339 -363 369 -363 ct 399 -363 424 -359 443 -352 ct 
462 -345 476 -336 485 -325 ct 494 -315 500 -301 503 -284 ct 505 -274 506 -256 506 -229 ct 
506 -149 l  506 -93 508 -57 510 -43 ct 513 -28 518 -14 525 0 ct 463 0 l  456 -13 452 -27 451 -44 ct 
p
446 -178 m  424 -169 391 -162 347 -155 ct 323 -152 305 -148 295 -143 ct 285 -139 277 -132 271 -124 ct 
266 -115 263 -106 263 -95 ct 263 -79 269 -66 281 -55 ct 293 -44 311 -39 334 -39 ct 
357 -39 378 -44 396 -54 ct 414 -64 427 -78 436 -96 ct 442 -110 446 -130 446 -156 ct 
446 -178 l  p ef
621 0 m  621 -45 l  599 -10 566 8 522 8 ct 494 8 468 0 444 -15 ct 420 -31 402 -53 389 -81 ct 
376 -109 369 -141 369 -177 ct 369 -213 375 -245 387 -274 ct 399 -302 417 -325 440 -340 ct 
464 -355 490 -363 519 -363 ct 541 -363 560 -358 576 -349 ct 593 -340 607 -329 617 -314 ct 
617 -490 l  677 -490 l  677 0 l  621 0 l  p
431 -177 m  431 -132 441 -98 460 -75 ct 479 -53 502 -41 528 -41 ct 554 -41 576 -52 595 -74 ct 
613 -95 622 -128 622 -172 ct 622 -221 613 -256 594 -279 ct 575 -302 552 -313 525 -313 ct 
498 -313 476 -302 458 -280 ct 440 -259 431 -224 431 -177 ct p ef
564 0 m  564 -355 l  618 -355 l  618 -305 l  644 -344 682 -363 731 -363 ct 
752 -363 772 -359 790 -351 ct 808 -344 821 -334 830 -321 ct 839 -309 845 -294 849 -277 ct 
851 -266 852 -246 852 -218 ct 852 0 l  792 0 l  792 -216 l  792 -240 790 -259 785 -271 ct 
781 -283 772 -293 760 -300 ct 748 -307 734 -311 718 -311 ct 693 -311 671 -303 652 -286 ct 
634 -270 624 -239 624 -194 ct 624 0 l  564 0 l  p ef
683 136 m  683 93 l  1081 93 l  1081 136 l  683 136 l  p ef
910 0 m  910 -355 l  964 -355 l  964 -305 l  975 -323 990 -337 1008 -347 ct 
1027 -358 1048 -363 1071 -363 ct 1098 -363 1119 -358 1136 -347 ct 1153 -336 1165 -320 1172 -301 ct 
1200 -342 1236 -363 1281 -363 ct 1316 -363 1343 -353 1362 -334 ct 1381 -314 1391 -284 1391 -244 ct 
1391 0 l  1331 0 l  1331 -224 l  1331 -248 1329 -265 1325 -276 ct 1321 -286 1314 -295 1304 -301 ct 
1294 -308 1282 -311 1268 -311 ct 1243 -311 1222 -303 1206 -286 ct 1189 -269 1181 -243 1181 -206 ct 
1181 0 l  1121 0 l  1121 -231 l  1121 -257 1116 -277 1106 -291 ct 1096 -304 1080 -311 1058 -311 ct 
1041 -311 1025 -306 1011 -297 ct 997 -289 986 -276 980 -258 ct 973 -241 970 -216 970 -184 ct 
970 0 l  910 0 l  p ef
1404 -44 m  1381 -25 1360 -11 1339 -4 ct 1319 4 1297 8 1273 8 ct 1234 8 1204 -2 1183 -21 ct 
1162 -40 1152 -64 1152 -94 ct 1152 -111 1156 -127 1164 -141 ct 1171 -156 1182 -167 1195 -176 ct 
1207 -185 1222 -191 1238 -196 ct 1250 -199 1268 -202 1291 -205 ct 1340 -210 1376 -217 1399 -225 ct 
1399 -234 1399 -239 1399 -241 ct 1399 -266 1393 -283 1382 -293 ct 1366 -306 1344 -313 1313 -313 ct 
1285 -313 1264 -308 1251 -298 ct 1237 -288 1227 -271 1221 -246 ct 1162 -254 l 
1167 -279 1176 -299 1188 -315 ct 1201 -330 1218 -342 1242 -350 ct 1265 -359 1292 -363 1322 -363 ct 
1352 -363 1377 -359 1396 -352 ct 1415 -345 1429 -336 1438 -325 ct 1447 -315 1453 -301 1456 -284 ct 
1458 -274 1459 -256 1459 -229 ct 1459 -149 l  1459 -93 1461 -57 1463 -43 ct 
1466 -28 1471 -14 1478 0 ct 1416 0 l  1409 -13 1405 -27 1404 -44 ct p
1399 -178 m  1377 -169 1344 -162 1300 -155 ct 1276 -152 1258 -148 1248 -143 ct 
1238 -139 1230 -132 1224 -124 ct 1219 -115 1216 -106 1216 -95 ct 1216 -79 1222 -66 1234 -55 ct 
1246 -44 1264 -39 1287 -39 ct 1310 -39 1331 -44 1349 -54 ct 1367 -64 1380 -78 1389 -96 ct 
1395 -110 1399 -130 1399 -156 ct 1399 -178 l  p ef
1306 0 m  1436 -185 l  1316 -355 l  1391 -355 l  1445 -272 l  1456 -256 1464 -243 1470 -232 ct 
1480 -247 1489 -260 1497 -271 ct 1557 -355 l  1629 -355 l  1506 -188 l  1638 0 l 
1564 0 l  1491 -110 l  1472 -140 l  1379 0 l  1306 0 l  p ef
pom
gr
gs
0 0 m 20999 0 l 20999 29698 l 0 29698 l 0 0 l eoclip newpath
gr
gr
0 29700 t 
pom
count op_count sub {pop} repeat countdictstack dict_count sub {end} repeat b4_inc_state restore
%%PageTrailer
%%Trailer
%%EOF
