<?xml version="1.0" encoding="UTF-8"?>
<!DOCTYPE svg PUBLIC "-//W3C//DTD SVG 1.1//EN" "http://www.w3.org/Graphics/SVG/1.1/DTD/svg11.dtd">
<svg version="1.2" width="210mm" height="297mm" viewBox="0 0 21000 29700" preserveAspectRatio="xMidYMid" fill-rule="evenodd" clip-path="url(#presentation_clip_path)" stroke-width="28.222" stroke-linejoin="round" xmlns="http://www.w3.org/2000/svg" xmlns:ooo="http://xml.openoffice.org/svg/export" xmlns:xlink="http://www.w3.org/1999/xlink" xml:space="preserve">
 <defs class="ClipPathGroup">
  <clipPath id="presentation_clip_path" clipPathUnits="userSpaceOnUse">
   <rect x="0" y="0" width="21000" height="29700"/>
  </clipPath>
 </defs>
 <defs class="TextShapeIndex">
  <g ooo:slide="id1" ooo:id-list="id3 id4 id5 id6 id7 id8 id9 id10 id11 id12 id13 id14 id15 id16 id17 id18 id19 id20 id21 id22 id23 id24 id25 id26 id27 id28 id29 id30 id31 id32 id33 id34 id35 id36 id37 id38 id39 id40 id41"/>
 </defs>
 <defs class="EmbeddedBulletChars">
  <g id="bullet-char-template(57356)" transform="scale(0.00048828125,-0.00048828125)">
   <path d="M 580,1141 L 1163,571 580,0 -4,571 580,1141 Z"/>
  </g>
  <g id="bullet-char-template(57354)" transform="scale(0.00048828125,-0.00048828125)">
   <path d="M 8,1128 L 1137,1128 1137,0 8,0 8,1128 Z"/>
  </g>
  <g id="bullet-char-template(10146)" transform="scale(0.00048828125,-0.00048828125)">
   <path d="M 174,0 L 602,739 174,1481 1456,739 174,0 Z M 1358,739 L 309,1346 659,739 1358,739 Z"/>
  </g>
  <g id="bullet-char-template(10132)" transform="scale(0.00048828125,-0.00048828125)">
   <path d="M 2015,739 L 1276,0 717,0 1260,543 174,543 174,936 1260,936 717,1481 1274,1481 2015,739 Z"/>
  </g>
  <g id="bullet-char-template(10007)" transform="scale(0.00048828125,-0.00048828125)">
   <path d="M 0,-2 C -7,14 -16,27 -25,37 L 356,567 C 262,823 215,952 215,954 215,979 228,992 255,992 264,992 276,990 289,987 310,991 331,999 354,1012 L 381,999 492,748 772,1049 836,1024 860,1049 C 881,1039 901,1025 922,1006 886,937 835,863 770,784 769,783 710,716 594,584 L 774,223 C 774,196 753,168 711,139 L 727,119 C 717,90 699,76 672,76 641,76 570,178 457,381 L 164,-76 C 142,-110 111,-127 72,-127 30,-127 9,-110 8,-76 1,-67 -2,-52 -2,-32 -2,-23 -1,-13 0,-2 Z"/>
  </g>
  <g id="bullet-char-template(10004)" transform="scale(0.00048828125,-0.00048828125)">
   <path d="M 285,-33 C 182,-33 111,30 74,156 52,228 41,333 41,471 41,549 55,616 82,672 116,743 169,778 240,778 293,778 328,747 346,684 L 369,508 C 377,444 397,411 428,410 L 1163,1116 C 1174,1127 1196,1133 1229,1133 1271,1133 1292,1118 1292,1087 L 1292,965 C 1292,929 1282,901 1262,881 L 442,47 C 390,-6 338,-33 285,-33 Z"/>
  </g>
  <g id="bullet-char-template(9679)" transform="scale(0.00048828125,-0.00048828125)">
   <path d="M 813,0 C 632,0 489,54 383,161 276,268 223,411 223,592 223,773 276,916 383,1023 489,1130 632,1184 813,1184 992,1184 1136,1130 1245,1023 1353,916 1407,772 1407,592 1407,412 1353,268 1245,161 1136,54 992,0 813,0 Z"/>
  </g>
  <g id="bullet-char-template(8226)" transform="scale(0.00048828125,-0.00048828125)">
   <path d="M 346,457 C 273,457 209,483 155,535 101,586 74,649 74,723 74,796 101,859 155,911 209,963 273,989 346,989 419,989 480,963 531,910 582,859 608,796 608,723 608,648 583,586 532,535 482,483 420,457 346,457 Z"/>
  </g>
  <g id="bullet-char-template(8211)" transform="scale(0.00048828125,-0.00048828125)">
   <path d="M -4,459 L 1135,459 1135,606 -4,606 -4,459 Z"/>
  </g>
 </defs>
 <defs class="TextEmbeddedBitmaps"/>
 <g>
  <g id="id2" class="Master_Slide">
   <g id="bg-id2" class="Background"/>
   <g id="bo-id2" class="BackgroundObjects"/>
  </g>
 </g>
 <g class="SlideGroup">
  <g>
   <g id="id1" class="Slide" clip-path="url(#presentation_clip_path)">
    <g class="Page">
     <g class="com.sun.star.drawing.CustomShape">
      <g id="id3">
       <path fill="rgb(114,159,207)" stroke="none" d="M 11250,12000 L 5800,12000 5800,3300 16700,3300 16700,12000 11250,12000 Z"/>
       <path fill="none" stroke="rgb(52,101,175)" d="M 11250,12000 L 5800,12000 5800,3300 16700,3300 16700,12000 11250,12000 Z"/>
      </g>
     </g>
     <g class="com.sun.star.drawing.CustomShape">
      <g id="id4">
       <path fill="rgb(192,192,192)" stroke="none" d="M 11300,11500 L 6400,11500 6400,3800 16200,3800 16200,11500 11300,11500 Z"/>
       <path fill="none" stroke="rgb(52,101,175)" d="M 11300,11500 L 6400,11500 6400,3800 16200,3800 16200,11500 11300,11500 Z"/>
      </g>
     </g>
     <g class="com.sun.star.drawing.LineShape">
      <g id="id5">
       <path fill="none" stroke="rgb(0,0,0)" d="M 9600,3300 L 9600,12000"/>
      </g>
     </g>
     <g class="com.sun.star.drawing.LineShape">
      <g id="id6">
       <path fill="none" stroke="rgb(0,0,0)" d="M 12900,3300 L 12900,12000"/>
      </g>
     </g>
     <g class="com.sun.star.drawing.LineShape">
      <g id="id7">
       <path fill="none" stroke="rgb(0,0,0)" d="M 5800,6200 L 16700,6200"/>
      </g>
     </g>
     <g class="com.sun.star.drawing.LineShape">
      <g id="id8">
       <path fill="none" stroke="rgb(0,0,0)" d="M 5800,9100 L 16700,9100"/>
      </g>
     </g>
     <g class="com.sun.star.drawing.TextShape">
      <g id="id9">
       <text class="TextShape"><tspan class="TextParagraph" font-family="Arial, sans-serif" font-size="635px" font-weight="400"><tspan class="TextPosition" x="7344" y="5101"><tspan fill="rgb(0,0,0)" stroke="none">(0,0)</tspan></tspan></tspan></text>
      </g>
     </g>
     <g class="com.sun.star.drawing.TextShape">
      <g id="id10">
       <text class="TextShape"><tspan class="TextParagraph" font-family="Arial, sans-serif" font-size="635px" font-weight="400"><tspan class="TextPosition" x="13950" y="5101"><tspan fill="rgb(0,0,0)" stroke="none">(2,0)</tspan></tspan></tspan></text>
      </g>
     </g>
     <g class="com.sun.star.drawing.TextShape">
      <g id="id11">
       <text class="TextShape"><tspan class="TextParagraph" font-family="Arial, sans-serif" font-size="635px" font-weight="400"><tspan class="TextPosition" x="10650" y="5139"><tspan fill="rgb(0,0,0)" stroke="none">(1,0)</tspan></tspan></tspan></text>
      </g>
     </g>
     <g class="com.sun.star.drawing.TextShape">
      <g id="id12">
       <text class="TextShape"><tspan class="TextParagraph" font-family="Arial, sans-serif" font-size="635px" font-weight="400"><tspan class="TextPosition" x="7244" y="7701"><tspan fill="rgb(0,0,0)" stroke="none">(0,1)</tspan></tspan></tspan></text>
      </g>
     </g>
     <g class="com.sun.star.drawing.TextShape">
      <g id="id13">
       <text class="TextShape"><tspan class="TextParagraph" font-family="Arial, sans-serif" font-size="635px" font-weight="400"><tspan class="TextPosition" x="7250" y="10501"><tspan fill="rgb(0,0,0)" stroke="none">(0,2)</tspan></tspan></tspan></text>
      </g>
     </g>
     <g class="com.sun.star.drawing.TextShape">
      <g id="id14">
       <text class="TextShape"><tspan class="TextParagraph" font-family="Arial, sans-serif" font-size="635px" font-weight="400"><tspan class="TextPosition" x="10644" y="7701"><tspan fill="rgb(0,0,0)" stroke="none">(1,1)</tspan></tspan></tspan></text>
      </g>
     </g>
     <g class="com.sun.star.drawing.TextShape">
      <g id="id15">
       <text class="TextShape"><tspan class="TextParagraph" font-family="Arial, sans-serif" font-size="635px" font-weight="400"><tspan class="TextPosition" x="13950" y="10539"><tspan fill="rgb(0,0,0)" stroke="none">(2,2)</tspan></tspan></tspan></text>
      </g>
     </g>
     <g class="com.sun.star.drawing.TextShape">
      <g id="id16">
       <text class="TextShape"><tspan class="TextParagraph" font-family="Arial, sans-serif" font-size="635px" font-weight="400"><tspan class="TextPosition" x="13944" y="7639"><tspan fill="rgb(0,0,0)" stroke="none">(2,1)</tspan></tspan></tspan></text>
      </g>
     </g>
     <g class="com.sun.star.drawing.TextShape">
      <g id="id17">
       <text class="TextShape"><tspan class="TextParagraph" font-family="Arial, sans-serif" font-size="635px" font-weight="400"><tspan class="TextPosition" x="10550" y="10501"><tspan fill="rgb(0,0,0)" stroke="none">(1,2)</tspan></tspan></tspan></text>
      </g>
     </g>
     <g class="com.sun.star.drawing.MeasureShape">
      <g id="id18">
       <path fill="none" stroke="rgb(0,0,0)" d="M 6087,3100 L 16413,3100"/>
       <path fill="rgb(0,0,0)" stroke="none" d="M 5800,3100 L 6100,3200 6100,3000 5800,3100 Z"/>
       <path fill="rgb(0,0,0)" stroke="none" d="M 16700,3100 L 16400,3000 16400,3200 16700,3100 Z"/>
       <path fill="none" stroke="rgb(0,0,0)" d="M 5800,3300 L 5800,2900"/>
       <path fill="none" stroke="rgb(0,0,0)" d="M 16700,3300 L 16700,2900"/>
       <text class="TextShape"><tspan class="TextParagraph" font-family="Arial, sans-serif" font-size="423px" font-weight="400"><tspan class="TextPosition" x="10353" y="2926"><tspan fill="rgb(0,0,0)" stroke="none">MM=M+2</tspan></tspan></tspan></text>
      </g>
     </g>
     <g class="com.sun.star.drawing.MeasureShape">
      <g id="id19">
       <path fill="none" stroke="rgb(0,0,0)" d="M 17400,3587 L 17400,11713"/>
       <path fill="rgb(0,0,0)" stroke="none" d="M 17400,3300 L 17300,3600 17500,3600 17400,3300 Z"/>
       <path fill="rgb(0,0,0)" stroke="none" d="M 17400,12000 L 17500,11700 17300,11700 17400,12000 Z"/>
       <path fill="none" stroke="rgb(0,0,0)" d="M 16700,3300 L 17600,3300"/>
       <path fill="none" stroke="rgb(0,0,0)" d="M 16700,12000 L 17600,12000"/>
       <text class="TextShape"><tspan class="TextParagraph" font-family="Arial, sans-serif" font-size="423px" font-weight="400"><tspan class="TextPosition" x="17218" y="8466" transform="translate(17218,8466) rotate(-90) translate(-17218,-8466)"><tspan fill="rgb(0,0,0)" stroke="none">NN=N+2</tspan></tspan></tspan></text>
      </g>
     </g>
     <g class="com.sun.star.drawing.MeasureShape">
      <g id="id20">
       <path fill="none" stroke="rgb(0,0,0)" d="M 6300,4087 L 6300,11213"/>
       <path fill="rgb(0,0,0)" stroke="none" d="M 6300,3800 L 6200,4100 6400,4100 6300,3800 Z"/>
       <path fill="rgb(0,0,0)" stroke="none" d="M 6300,11500 L 6400,11200 6200,11200 6300,11500 Z"/>
       <path fill="none" stroke="rgb(0,0,0)" d="M 6100,3800 L 6100,3800 Z"/>
       <path fill="none" stroke="rgb(0,0,0)" d="M 6100,11500 L 6100,11500 Z"/>
       <text class="TextShape"><tspan class="TextParagraph" font-family="Arial, sans-serif" font-size="423px" font-weight="400"><tspan class="TextPosition" x="5645" y="7804" transform="translate(5645,7804) rotate(-90) translate(-5645,-7804)"><tspan fill="rgb(0,0,0)" stroke="none">N</tspan></tspan></tspan></text>
      </g>
     </g>
     <g class="com.sun.star.drawing.MeasureShape">
      <g id="id21">
       <path fill="none" stroke="rgb(0,0,0)" d="M 6587,11700 L 15913,11700"/>
       <path fill="rgb(0,0,0)" stroke="none" d="M 6300,11700 L 6600,11800 6600,11600 6300,11700 Z"/>
       <path fill="rgb(0,0,0)" stroke="none" d="M 16200,11700 L 15900,11600 15900,11800 16200,11700 Z"/>
       <path fill="none" stroke="rgb(0,0,0)" d="M 6300,11500 L 6300,11500 Z"/>
       <path fill="none" stroke="rgb(0,0,0)" d="M 16200,11500 L 16200,11500 Z"/>
       <text class="TextShape"><tspan class="TextParagraph" font-family="Arial, sans-serif" font-size="423px" font-weight="400"><tspan class="TextPosition" x="11074" y="11526"><tspan fill="rgb(0,0,0)" stroke="none">M</tspan></tspan></tspan></text>
      </g>
     </g>
     <g class="com.sun.star.drawing.MeasureShape">
      <g id="id22">
       <path fill="none" stroke="rgb(0,0,0)" d="M 6687,8500 L 9313,8500"/>
       <path fill="rgb(0,0,0)" stroke="none" d="M 6400,8500 L 6700,8600 6700,8400 6400,8500 Z"/>
       <path fill="rgb(0,0,0)" stroke="none" d="M 9600,8500 L 9300,8400 9300,8600 9600,8500 Z"/>
       <path fill="none" stroke="rgb(0,0,0)" d="M 6400,9200 L 6400,8300"/>
       <path fill="none" stroke="rgb(0,0,0)" d="M 9600,9200 L 9600,8300"/>
       <text class="TextShape"><tspan class="TextParagraph" font-family="Arial, sans-serif" font-size="423px" font-weight="400"><tspan class="TextPosition" x="7648" y="8326"><tspan fill="rgb(0,0,0)" stroke="none">mm</tspan></tspan></tspan></text>
      </g>
     </g>
     <g class="com.sun.star.drawing.MeasureShape">
      <g id="id23">
       <path fill="none" stroke="rgb(0,0,0)" d="M 9200,8813 L 9200,6487"/>
       <path fill="rgb(0,0,0)" stroke="none" d="M 9200,9100 L 9300,8800 9100,8800 9200,9100 Z"/>
       <path fill="rgb(0,0,0)" stroke="none" d="M 9200,6200 L 9100,6500 9300,6500 9200,6200 Z"/>
       <path fill="none" stroke="rgb(0,0,0)" d="M 9900,9100 L 9000,9100"/>
       <path fill="none" stroke="rgb(0,0,0)" d="M 9900,6200 L 9000,6200"/>
       <text class="TextShape"><tspan class="TextParagraph" font-family="Arial, sans-serif" font-size="423px" font-weight="400"><tspan class="TextPosition" x="8986" y="7887" transform="translate(8986,7887) rotate(-90) translate(-8986,-7887)"><tspan fill="rgb(0,0,0)" stroke="none">nn</tspan></tspan></tspan></text>
      </g>
     </g>
     <g class="com.sun.star.drawing.CustomShape">
      <g id="id24">
       <path fill="rgb(0,0,0)" stroke="none" d="M 6450,6100 C 6535,6100 6600,6165 6600,6250 6600,6335 6535,6400 6450,6400 6365,6400 6300,6335 6300,6250 6300,6165 6365,6100 6450,6100 Z M 6300,6100 L 6300,6100 Z M 6601,6401 L 6601,6401 Z"/>
       <path fill="none" stroke="rgb(52,101,175)" d="M 6450,6100 C 6535,6100 6600,6165 6600,6250 6600,6335 6535,6400 6450,6400 6365,6400 6300,6335 6300,6250 6300,6165 6365,6100 6450,6100 Z"/>
       <path fill="none" stroke="rgb(52,101,175)" d="M 6300,6100 L 6300,6100 Z"/>
       <path fill="none" stroke="rgb(52,101,175)" d="M 6601,6401 L 6601,6401 Z"/>
      </g>
     </g>
     <g class="com.sun.star.drawing.TextShape">
      <g id="id25">
       <text class="TextShape"><tspan class="TextParagraph" font-family="Arial, sans-serif" font-size="423px" font-weight="400"><tspan class="TextPosition" x="5050" y="6710"><tspan fill="rgb(0,0,0)" stroke="none">(startm,startn)</tspan></tspan></tspan></text>
      </g>
     </g>
     <g class="com.sun.star.drawing.LineShape">
      <g id="id26">
       <path fill="none" stroke="rgb(52,101,175)" d="M 5943,2800 L 6357,2800"/>
       <path fill="rgb(52,101,175)" stroke="none" d="M 5800,2800 L 5950,2850 5950,2750 5800,2800 Z"/>
       <path fill="rgb(52,101,175)" stroke="none" d="M 6500,2800 L 6350,2750 6350,2850 6500,2800 Z"/>
      </g>
     </g>
     <g class="com.sun.star.drawing.LineShape">
      <g id="id27">
       <path fill="none" stroke="rgb(52,101,175)" d="M 5400,3443 L 5400,3757"/>
       <path fill="rgb(52,101,175)" stroke="none" d="M 5400,3300 L 5350,3450 5450,3450 5400,3300 Z"/>
       <path fill="rgb(52,101,175)" stroke="none" d="M 5400,3900 L 5450,3750 5350,3750 5400,3900 Z"/>
      </g>
     </g>
     <g class="com.sun.star.drawing.TextShape">
      <g id="id28">
       <text class="TextShape"><tspan class="TextParagraph" font-family="Arial, sans-serif" font-size="282px" font-weight="400"><tspan class="TextPosition" x="5750" y="2514"><tspan fill="rgb(0,0,0)" stroke="none">padm</tspan></tspan></tspan></text>
      </g>
     </g>
     <g class="com.sun.star.drawing.TextShape">
      <g id="id29">
       <text class="TextShape"><tspan class="TextParagraph" font-family="Arial, sans-serif" font-size="282px" font-weight="400"><tspan class="TextPosition" x="4650" y="3683"><tspan fill="rgb(0,0,0)" stroke="none">padn</tspan></tspan></tspan></text>
      </g>
     </g>
     <g class="com.sun.star.drawing.LineShape">
      <g id="id30">
       <path fill="none" stroke="rgb(0,0,0)" d="M 9600,8900 L 12900,8900"/>
      </g>
     </g>
     <g class="com.sun.star.drawing.LineShape">
      <g id="id31">
       <path fill="none" stroke="rgb(0,0,0)" d="M 12700,6200 L 12700,9100"/>
      </g>
     </g>
     <g class="com.sun.star.drawing.LineShape">
      <g id="id32">
       <path fill="none" stroke="rgb(0,0,0)" d="M 12900,6400 L 9600,6400"/>
      </g>
     </g>
     <g class="com.sun.star.drawing.LineShape">
      <g id="id33">
       <path fill="none" stroke="rgb(0,0,0)" d="M 9800,6200 L 9800,9100"/>
      </g>
     </g>
     <g class="com.sun.star.drawing.CustomShape">
      <g id="id34">
       <path fill="rgb(114,159,207)" stroke="none" d="M 11100,8759 L 11250,8600 11401,8759 11325,8759 11325,9241 11401,9241 11250,9401 11100,9241 11175,9241 11175,8759 11100,8759 Z M 11100,8600 L 11100,8600 Z M 11401,9401 L 11401,9401 Z"/>
       <path fill="none" stroke="rgb(52,101,175)" d="M 11100,8759 L 11250,8600 11401,8759 11325,8759 11325,9241 11401,9241 11250,9401 11100,9241 11175,9241 11175,8759 11100,8759 Z"/>
       <path fill="none" stroke="rgb(52,101,175)" d="M 11100,8600 L 11100,8600 Z"/>
       <path fill="none" stroke="rgb(52,101,175)" d="M 11401,9401 L 11401,9401 Z"/>
      </g>
     </g>
     <g class="com.sun.star.drawing.CustomShape">
      <g id="id35">
       <path fill="rgb(114,159,207)" stroke="none" d="M 12400,7550 L 12579,7400 12579,7475 13121,7475 13121,7400 13301,7550 13121,7701 13121,7625 12579,7625 12579,7701 12400,7550 Z M 12400,7400 L 12400,7400 Z M 13301,7701 L 13301,7701 Z"/>
       <path fill="none" stroke="rgb(52,101,175)" d="M 12400,7550 L 12579,7400 12579,7475 13121,7475 13121,7400 13301,7550 13121,7701 13121,7625 12579,7625 12579,7701 12400,7550 Z"/>
       <path fill="none" stroke="rgb(52,101,175)" d="M 12400,7400 L 12400,7400 Z"/>
       <path fill="none" stroke="rgb(52,101,175)" d="M 13301,7701 L 13301,7701 Z"/>
      </g>
     </g>
     <g class="com.sun.star.drawing.CustomShape">
      <g id="id36">
       <path fill="rgb(114,159,207)" stroke="none" d="M 9300,7550 L 9459,7400 9459,7475 9941,7475 9941,7400 10101,7550 9941,7701 9941,7625 9459,7625 9459,7701 9300,7550 Z M 9300,7400 L 9300,7400 Z M 10101,7701 L 10101,7701 Z"/>
       <path fill="none" stroke="rgb(52,101,175)" d="M 9300,7550 L 9459,7400 9459,7475 9941,7475 9941,7400 10101,7550 9941,7701 9941,7625 9459,7625 9459,7701 9300,7550 Z"/>
       <path fill="none" stroke="rgb(52,101,175)" d="M 9300,7400 L 9300,7400 Z"/>
       <path fill="none" stroke="rgb(52,101,175)" d="M 10101,7701 L 10101,7701 Z"/>
      </g>
     </g>
     <g class="com.sun.star.drawing.CustomShape">
      <g id="id37">
       <path fill="rgb(114,159,207)" stroke="none" d="M 11100,6059 L 11250,5900 11401,6059 11325,6059 11325,6541 11401,6541 11250,6701 11100,6541 11175,6541 11175,6059 11100,6059 Z M 11100,5900 L 11100,5900 Z M 11401,6701 L 11401,6701 Z"/>
       <path fill="none" stroke="rgb(52,101,175)" d="M 11100,6059 L 11250,5900 11401,6059 11325,6059 11325,6541 11401,6541 11250,6701 11100,6541 11175,6541 11175,6059 11100,6059 Z"/>
       <path fill="none" stroke="rgb(52,101,175)" d="M 11100,5900 L 11100,5900 Z"/>
       <path fill="none" stroke="rgb(52,101,175)" d="M 11401,6701 L 11401,6701 Z"/>
      </g>
     </g>
     <g class="com.sun.star.drawing.LineShape">
      <g id="id38">
       <path fill="none" stroke="rgb(52,101,175)" d="M 16343,12200 L 16557,12200"/>
       <path fill="rgb(52,101,175)" stroke="none" d="M 16200,12200 L 16350,12250 16350,12150 16200,12200 Z"/>
       <path fill="rgb(52,101,175)" stroke="none" d="M 16700,12200 L 16550,12150 16550,12250 16700,12200 Z"/>
      </g>
     </g>
     <g class="com.sun.star.drawing.LineShape">
      <g id="id39">
       <path fill="none" stroke="rgb(52,101,175)" d="M 16800,11643 L 16800,11857"/>
       <path fill="rgb(52,101,175)" stroke="none" d="M 16800,11500 L 16750,11650 16850,11650 16800,11500 Z"/>
       <path fill="rgb(52,101,175)" stroke="none" d="M 16800,12000 L 16850,11850 16750,11850 16800,12000 Z"/>
      </g>
     </g>
     <g class="com.sun.star.drawing.TextShape">
      <g id="id40">
       <text class="TextShape"><tspan class="TextParagraph" font-family="Arial, sans-serif" font-size="282px" font-weight="400"><tspan class="TextPosition" x="15750" y="12714"><tspan fill="rgb(0,0,0)" stroke="none">padm_max</tspan></tspan></tspan></text>
      </g>
     </g>
     <g class="com.sun.star.drawing.TextShape">
      <g id="id41">
       <text class="TextShape"><tspan class="TextParagraph" font-family="Arial, sans-serif" font-size="282px" font-weight="400"><tspan class="TextPosition" x="17027" y="11514"><tspan fill="rgb(0,0,0)" stroke="none">padn_max</tspan></tspan></tspan></text>
      </g>
     </g>
    </g>
   </g>
  </g>
 </g>
</svg>