\relax 
\providecommand\hyper@newdestlabel[2]{}
\providecommand\HyperFirstAtBeginDocument{\AtBeginDocument}
\HyperFirstAtBeginDocument{\ifx\hyper@anchor\@undefined
\global\let\oldcontentsline\contentsline
\gdef\contentsline#1#2#3#4{\oldcontentsline{#1}{#2}{#3}}
\global\let\oldnewlabel\newlabel
\gdef\newlabel#1#2{\newlabelxx{#1}#2}
\gdef\newlabelxx#1#2#3#4#5#6{\oldnewlabel{#1}{{#2}{#3}}}
\AtEndDocument{\ifx\hyper@anchor\@undefined
\let\contentsline\oldcontentsline
\let\newlabel\oldnewlabel
\fi}
\fi}
\global\let\hyper@last\relax 
\gdef\HyperFirstAtBeginDocument#1{#1}
\providecommand*\HyPL@Entry[1]{}
\HyPL@Entry{0<</S/D>>}
\@writefile{toc}{\contentsline {section}{\numberline {1}Introduction}{1}{section.1}}
\@writefile{toc}{\contentsline {section}{\numberline {2}Design}{1}{section.2}}
\@writefile{toc}{\contentsline {subsection}{\numberline {2.1}Task and Serial Code}{1}{subsection.2.1}}
\newlabel{Kernel}{{1}{1}{Task and Serial Code}{equation.2.1}{}}
\@writefile{lof}{\contentsline {figure}{\numberline {1}{\ignorespaces Convolution with Kernel \ref  {Kernel} is operation represented by the black arrow in the image. The inverse operation that we aim to perform is represented with the red arrow}}{2}{figure.1}}
\newlabel{Images}{{1}{2}{Convolution with Kernel \ref {Kernel} is operation represented by the black arrow in the image. The inverse operation that we aim to perform is represented with the red arrow}{figure.1}{}}
\newlabel{update}{{2}{2}{Task and Serial Code}{equation.2.2}{}}
\@writefile{toc}{\contentsline {subsection}{\numberline {2.2}Theory of Parallel Implementation}{2}{subsection.2.2}}
\@writefile{lof}{\contentsline {figure}{\numberline {2}{\ignorespaces Two dimensional decomposition with shown halo exchanges for node with coordinates (1,1). Also, in this image one can see the definition of padn,padm,padn\_max,padn\_max,startm,startn. Startm and startn are shown for rank (0,1) as well as are mm and nn, which correspond to size of local dataset on a node. Padn and other variables are introduced in order to not iterate over blank boundaries of the image. Some of the nodes like for example (0,0) have non-zero padm,padn values while e.g. node (1,1) has all padding variables equal to zero}}{3}{figure.2}}
\newlabel{pic}{{2}{3}{Two dimensional decomposition with shown halo exchanges for node with coordinates (1,1). Also, in this image one can see the definition of padn,padm,padn\_max,padn\_max,startm,startn. Startm and startn are shown for rank (0,1) as well as are mm and nn, which correspond to size of local dataset on a node. Padn and other variables are introduced in order to not iterate over blank boundaries of the image. Some of the nodes like for example (0,0) have non-zero padm,padn values while e.g. node (1,1) has all padding variables equal to zero}{figure.2}{}}
\@writefile{toc}{\contentsline {subsection}{\numberline {2.3}Basic Description}{3}{subsection.2.3}}
\@writefile{toc}{\contentsline {subsection}{\numberline {2.4}Additional Description}{4}{subsection.2.4}}
\@writefile{lof}{\contentsline {figure}{\numberline {3}{\ignorespaces Test files used. They are located in /data subdirectory}}{5}{figure.3}}
\newlabel{table}{{3}{5}{Test files used. They are located in /data subdirectory}{figure.3}{}}
\@writefile{toc}{\contentsline {subsection}{\numberline {2.5}Code Organization}{5}{subsection.2.5}}
\@writefile{toc}{\contentsline {section}{\numberline {3}Demonstration of Correctness}{5}{section.3}}
\@writefile{toc}{\contentsline {section}{\numberline {4}Performance Tests}{6}{section.4}}
\@writefile{toc}{\contentsline {subsection}{\numberline {4.1}Note on Performance tests}{6}{subsection.4.1}}
\@writefile{lof}{\contentsline {figure}{\numberline {4}{\ignorespaces Distribution of time per iteration in measurements. We can see that this distribution is not symmetric and has very long tails. The this was obtained by reconstructing image 768x768 with criterion $\Delta <0.001$}}{7}{figure.4}}
\newlabel{distribution}{{4}{7}{Distribution of time per iteration in measurements. We can see that this distribution is not symmetric and has very long tails. The this was obtained by reconstructing image 768x768 with criterion $\Delta <0.001$}{figure.4}{}}
\@writefile{lof}{\contentsline {figure}{\numberline {5}{\ignorespaces Here we present results of performance test where stopping criteria are given by $\Delta <0.001$ for different image sizes with various core involved. One can see that there is decreasing trend in time per iteration.}}{7}{figure.5}}
\newlabel{perresults}{{5}{7}{Here we present results of performance test where stopping criteria are given by $\Delta <0.001$ for different image sizes with various core involved. One can see that there is decreasing trend in time per iteration}{figure.5}{}}
\@writefile{lof}{\contentsline {figure}{\numberline {6}{\ignorespaces Here we present results of performance test where stopping criteria are given by $\Delta <0.001$ for different images. We show speed-up of the algorithm for each image. We see that with increasing size of the image the speed-up is more pronounced and consistent.}}{8}{figure.6}}
\newlabel{speedup}{{6}{8}{Here we present results of performance test where stopping criteria are given by $\Delta <0.001$ for different images. We show speed-up of the algorithm for each image. We see that with increasing size of the image the speed-up is more pronounced and consistent}{figure.6}{}}
\@writefile{toc}{\contentsline {subsection}{\numberline {4.2}Results \& Discussion}{8}{subsection.4.2}}
\@writefile{toc}{\contentsline {section}{\numberline {5}Conclusion}{9}{section.5}}
\@writefile{toc}{\contentsline {section}{\numberline {6}Appendix}{9}{section.6}}
\@writefile{toc}{\contentsline {subsection}{\numberline {6.1}Requirements}{9}{subsection.6.1}}
\@writefile{toc}{\contentsline {subsection}{\numberline {6.2}How to Build}{9}{subsection.6.2}}
\@writefile{toc}{\contentsline {subsection}{\numberline {6.3}How to Run}{9}{subsection.6.3}}
\@writefile{toc}{\contentsline {subsection}{\numberline {6.4}Scope of Tests on Architectures and MPI Implementations}{10}{subsection.6.4}}
