--------------------------------------------------
Running MPI program <job1416612471552172356> on 7 processes
--------------------------------------------------

Starting the Program
--------------------------------------------------------
Topology created: (7,1)
Probing the Image Size:
Done. Dimensions 2550, 1695
--------------------------------------------------------
Received Dimensions on the rank: 1 which are 2552, 1697
Received Dimensions on the rank: 2 which are 2552, 1697
Received Dimensions on the rank: 4 which are 2552, 1697
Received Dimensions on the rank: 6 which are 2552, 1697
Reading the data of size : 2550,1695 on master node
Receiving on the rank 4 
Received Dimensions on the rank: 5 which are 2552, 1697
Receiving on the rank 6 
Received Dimensions on the rank: 3 which are 2552, 1697
Receiving on the rank 1 
Receiving on the rank 2 
Receiving on the rank 5 
Receiving on the rank 3 
Done Reading the data of master node
--------------------------------------------------------
Sending msg with information to rank: 1
Sending to rank: 1 done
--------------------------------------------------------
Received on the rank 1 
--------------------------------------------------------
Setting Initial Conditiosn on rank 1 
Sending msg with information to rank: 2
Sending to rank: 2 done
--------------------------------------------------------
Done Setting Initial Conditiosn on rank 1
--------------------------------------------------------
Calculation Started on rank 1
Padding Initialized: 0 1 0 -1 on Rank: 1 
Received on the rank 2 
--------------------------------------------------------
Sending msg with information to rank: 3
Sending to rank: 3 done
--------------------------------------------------------
Setting Initial Conditiosn on rank 2 
Received on the rank 3 
--------------------------------------------------------
Done Setting Initial Conditiosn on rank 2
--------------------------------------------------------
Calculation Started on rank 2
Padding Initialized: 0 1 0 -1 on Rank: 2 
Sending msg with information to rank: 4
Sending to rank: 4 done
--------------------------------------------------------
Setting Initial Conditiosn on rank 3 
Received on the rank 4 
--------------------------------------------------------
Done Setting Initial Conditiosn on rank 3
--------------------------------------------------------
Calculation Started on rank 3
Padding Initialized: 0 1 0 -1 on Rank: 3 
Sending msg with information to rank: 5
Sending to rank: 5 done
--------------------------------------------------------
Setting Initial Conditiosn on rank 4 
Received on the rank 5 
--------------------------------------------------------
Done Setting Initial Conditiosn on rank 4
--------------------------------------------------------
Calculation Started on rank 4
Padding Initialized: 0 1 0 -1 on Rank: 4 
Sending msg with information to rank: 6
Sending to rank: 6 done
--------------------------------------------------------
Setting Initial Conditiosn on rank 5 
Received on the rank 6 
--------------------------------------------------------
Done Setting Initial Conditiosn on rank 5
--------------------------------------------------------
Calculation Started on rank 5
Padding Initialized: 0 1 0 -1 on Rank: 5 
Setting Initial Conditiosn on rank 0 
Setting Initial Conditiosn on rank 6 
Done Setting Initial Conditiosn on rank 0
--------------------------------------------------------
Calculation Started on rank 0
Padding Initialized: 1 1 0 -1 on Rank: 0 
Done Setting Initial Conditiosn on rank 6
--------------------------------------------------------
Calculation Started on rank 6
Padding Initialized: 0 1 -1 -1 on Rank: 6 
GLOBAL DELTA: 100.000000
----------------------------------------------------------------
On Iteration: 0 we have Average: 255.672821 
GLOBAL DELTA: 2.772018
----------------------------------------------------------------
On Iteration: 100 we have Average: 254.496811 
TIME PER UPDFREQ M: 2550 N: 1695 size: 7 total_it: -2 iter: 100 Error: 0.100000 time: 0.983647 
GLOBAL DELTA: 1.362732
----------------------------------------------------------------
On Iteration: 200 we have Average: 254.014404 
TIME PER UPDFREQ M: 2550 N: 1695 size: 7 total_it: -2 iter: 200 Error: 0.100000 time: 0.940708 
GLOBAL DELTA: 0.857788
----------------------------------------------------------------
On Iteration: 300 we have Average: 253.662704 
TIME PER UPDFREQ M: 2550 N: 1695 size: 7 total_it: -2 iter: 300 Error: 0.100000 time: 0.963845 
GLOBAL DELTA: 0.625397
----------------------------------------------------------------
On Iteration: 400 we have Average: 253.364227 
TIME PER UPDFREQ M: 2550 N: 1695 size: 7 total_it: -2 iter: 400 Error: 0.100000 time: 0.964563 
GLOBAL DELTA: 0.522797
----------------------------------------------------------------
On Iteration: 500 we have Average: 253.103317 
TIME PER UPDFREQ M: 2550 N: 1695 size: 7 total_it: -2 iter: 500 Error: 0.100000 time: 0.963268 
GLOBAL DELTA: 0.451630
----------------------------------------------------------------
On Iteration: 600 we have Average: 252.869308 
TIME PER UPDFREQ M: 2550 N: 1695 size: 7 total_it: -2 iter: 600 Error: 0.100000 time: 0.949430 
GLOBAL DELTA: 0.399750
----------------------------------------------------------------
On Iteration: 700 we have Average: 252.657806 
TIME PER UPDFREQ M: 2550 N: 1695 size: 7 total_it: -2 iter: 700 Error: 0.100000 time: 0.945856 
GLOBAL DELTA: 0.360046
----------------------------------------------------------------
On Iteration: 800 we have Average: 252.460922 
TIME PER UPDFREQ M: 2550 N: 1695 size: 7 total_it: -2 iter: 800 Error: 0.100000 time: 0.964217 
GLOBAL DELTA: 0.328125
----------------------------------------------------------------
On Iteration: 900 we have Average: 252.277588 
TIME PER UPDFREQ M: 2550 N: 1695 size: 7 total_it: -2 iter: 900 Error: 0.100000 time: 0.984918 
GLOBAL DELTA: 0.301575
----------------------------------------------------------------
On Iteration: 1000 we have Average: 252.109940 
TIME PER UPDFREQ M: 2550 N: 1695 size: 7 total_it: -2 iter: 1000 Error: 0.100000 time: 0.992885 
GLOBAL DELTA: 0.278351
----------------------------------------------------------------
On Iteration: 1100 we have Average: 251.952042 
TIME PER UPDFREQ M: 2550 N: 1695 size: 7 total_it: -2 iter: 1100 Error: 0.100000 time: 0.993933 
GLOBAL DELTA: 0.257935
----------------------------------------------------------------
On Iteration: 1200 we have Average: 251.798492 
TIME PER UPDFREQ M: 2550 N: 1695 size: 7 total_it: -2 iter: 1200 Error: 0.100000 time: 0.994607 
GLOBAL DELTA: 0.239777
----------------------------------------------------------------
On Iteration: 1300 we have Average: 251.649567 
TIME PER UPDFREQ M: 2550 N: 1695 size: 7 total_it: -2 iter: 1300 Error: 0.100000 time: 0.995866 
GLOBAL DELTA: 0.223511
----------------------------------------------------------------
On Iteration: 1400 we have Average: 251.507004 
TIME PER UPDFREQ M: 2550 N: 1695 size: 7 total_it: -2 iter: 1400 Error: 0.100000 time: 0.991714 
GLOBAL DELTA: 0.208710
----------------------------------------------------------------
On Iteration: 1500 we have Average: 251.371185 
TIME PER UPDFREQ M: 2550 N: 1695 size: 7 total_it: -2 iter: 1500 Error: 0.100000 time: 0.987664 
GLOBAL DELTA: 0.195480
----------------------------------------------------------------
On Iteration: 1600 we have Average: 251.240906 
TIME PER UPDFREQ M: 2550 N: 1695 size: 7 total_it: -2 iter: 1600 Error: 0.100000 time: 0.981880 
GLOBAL DELTA: 0.183517
----------------------------------------------------------------
On Iteration: 1700 we have Average: 251.115967 
TIME PER UPDFREQ M: 2550 N: 1695 size: 7 total_it: -2 iter: 1700 Error: 0.100000 time: 0.980393 
GLOBAL DELTA: 0.172577
----------------------------------------------------------------
On Iteration: 1800 we have Average: 250.995346 
TIME PER UPDFREQ M: 2550 N: 1695 size: 7 total_it: -2 iter: 1800 Error: 0.100000 time: 0.974248 
GLOBAL DELTA: 0.162643
----------------------------------------------------------------
On Iteration: 1900 we have Average: 250.879715 
TIME PER UPDFREQ M: 2550 N: 1695 size: 7 total_it: -2 iter: 1900 Error: 0.100000 time: 0.942003 
GLOBAL DELTA: 0.153519
----------------------------------------------------------------
On Iteration: 2000 we have Average: 250.766907 
TIME PER UPDFREQ M: 2550 N: 1695 size: 7 total_it: -2 iter: 2000 Error: 0.100000 time: 0.938419 
GLOBAL DELTA: 0.145248
----------------------------------------------------------------
On Iteration: 2100 we have Average: 250.657166 
TIME PER UPDFREQ M: 2550 N: 1695 size: 7 total_it: -2 iter: 2100 Error: 0.100000 time: 0.939871 
GLOBAL DELTA: 0.137634
----------------------------------------------------------------
On Iteration: 2200 we have Average: 250.549240 
TIME PER UPDFREQ M: 2550 N: 1695 size: 7 total_it: -2 iter: 2200 Error: 0.100000 time: 0.937812 
GLOBAL DELTA: 0.130615
----------------------------------------------------------------
On Iteration: 2300 we have Average: 250.443604 
TIME PER UPDFREQ M: 2550 N: 1695 size: 7 total_it: -2 iter: 2300 Error: 0.100000 time: 0.910080 
GLOBAL DELTA: 0.124138
----------------------------------------------------------------
On Iteration: 2400 we have Average: 250.339157 
TIME PER UPDFREQ M: 2550 N: 1695 size: 7 total_it: -2 iter: 2400 Error: 0.100000 time: 0.898507 
GLOBAL DELTA: 0.118195
----------------------------------------------------------------
On Iteration: 2500 we have Average: 250.236511 
TIME PER UPDFREQ M: 2550 N: 1695 size: 7 total_it: -2 iter: 2500 Error: 0.100000 time: 0.898493 
GLOBAL DELTA: 0.112709
----------------------------------------------------------------
On Iteration: 2600 we have Average: 250.136688 
TIME PER UPDFREQ M: 2550 N: 1695 size: 7 total_it: -2 iter: 2600 Error: 0.100000 time: 0.883410 
GLOBAL DELTA: 0.107635
----------------------------------------------------------------
On Iteration: 2700 we have Average: 250.039200 
TIME PER UPDFREQ M: 2550 N: 1695 size: 7 total_it: -2 iter: 2700 Error: 0.100000 time: 0.808906 
GLOBAL DELTA: 0.103043
----------------------------------------------------------------
On Iteration: 2800 we have Average: 249.943756 
TIME PER UPDFREQ M: 2550 N: 1695 size: 7 total_it: -2 iter: 2800 Error: 0.100000 time: 0.859056 
GLOBAL DELTA: 0.099609
----------------------------------------------------------------
Calculation Finished on rank: 0
--------------------------------------------------------
Calculation Finished on rank: 1
--------------------------------------------------------
SEND BACK: mmh 366 nnh 1699 
Calculation Finished on rank: 2
--------------------------------------------------------
SEND BACK: mmh 366 nnh 1699 
Calculation Finished on rank: 3
--------------------------------------------------------
SEND BACK: mmh 366 nnh 1699 
Calculation Finished on rank: 4
--------------------------------------------------------
SEND BACK: mmh 366 nnh 1699 
Calculation Finished on rank: 5
--------------------------------------------------------
SEND BACK: mmh 366 nnh 1699 
Calculation Finished on rank: 6
--------------------------------------------------------
SEND BACK: mmh 366 nnh 1699 
RECV : mmh 366 nnh 1699 
Received Message from 1, and with params 368 0 364 1697
RECV : mmh 366 nnh 1699 
Received Message from 2, and with params 732 0 364 1697
RECV : mmh 366 nnh 1699 
Received Message from 3, and with params 1096 0 364 1697
RECV : mmh 366 nnh 1699 
Received Message from 4, and with params 1460 0 364 1697
RECV : mmh 366 nnh 1699 
Received Message from 5, and with params 1824 0 364 1697
RECV : mmh 366 nnh 1699 
Received Message from 6, and with params 2188 0 364 1697
TIME TO FINISH M: 2550 N: 1695 size: 7 total_it: -2 iter: 2900 Error: 0.100000 time: 27.437957 
TIME OF MIN  M: 2550 N: 1695 size: 7 total_it: -2 iter: 2900 Error: 0.100000 time: 0.808906 
Writing 2550 x 1695 picture into file: ../results_performance/1416612471552172356p.pgm

real	0m30.846s
user	3m31.996s
sys	0m1.708s

--------------------
Finished MPI program
--------------------

