--------------------------------------------------
Running MPI program <job1416612477508430137> on 21 processes
--------------------------------------------------

Starting the Program
--------------------------------------------------------
Topology created: (7,3)
Probing the Image Size:
Done. Dimensions 2550, 1695
--------------------------------------------------------
Reading the data of size : 2550,1695 on master node
Received Dimensions on the rank: 2 which are 2552, 1697
Receiving on the rank 2 
Received Dimensions on the rank: 3 which are 2552, 1697
Receiving on the rank 3 
Received Dimensions on the rank: 4 which are 2552, 1697
Receiving on the rank 4 
Received Dimensions on the rank: 6 which are 2552, 1697
Receiving on the rank 6 
Received Dimensions on the rank: 7 which are 2552, 1697
Receiving on the rank 7 
Received Dimensions on the rank: 16 which are 2552, 1697
Receiving on the rank 16 
Received Dimensions on the rank: 18 which are 2552, 1697
Receiving on the rank 18 
Received Dimensions on the rank: 19 which are 2552, 1697
Receiving on the rank 19 
Received Dimensions on the rank: 20 which are 2552, 1697
Receiving on the rank 20 
Received Dimensions on the rank: 1 which are 2552, 1697
Receiving on the rank 1 
Received Dimensions on the rank: 5 which are 2552, 1697
Receiving on the rank 5 
Received Dimensions on the rank: 8 which are 2552, 1697
Receiving on the rank 8 
Received Dimensions on the rank: 9 which are 2552, 1697
Receiving on the rank 9 
Received Dimensions on the rank: 10 which are 2552, 1697
Receiving on the rank 10 
Received Dimensions on the rank: 11 which are 2552, 1697
Receiving on the rank 11 
Received Dimensions on the rank: 17 which are 2552, 1697
Receiving on the rank 17 
Received Dimensions on the rank: 12 which are 2552, 1697
Receiving on the rank 12 
Received Dimensions on the rank: 13 which are 2552, 1697
Receiving on the rank 13 
Received Dimensions on the rank: 14 which are 2552, 1697
Receiving on the rank 14 
Received Dimensions on the rank: 15 which are 2552, 1697
Receiving on the rank 15 
Done Reading the data of master node
--------------------------------------------------------
Sending msg with information to rank: 1
Sending to rank: 1 done
--------------------------------------------------------
Received on the rank 1 
--------------------------------------------------------
Setting Initial Conditiosn on rank 1 
Sending msg with information to rank: 2
Sending to rank: 2 done
--------------------------------------------------------
Done Setting Initial Conditiosn on rank 1
--------------------------------------------------------
Calculation Started on rank 1
Padding Initialized: 1 0 0 0 on Rank: 1 
Received on the rank 2 
--------------------------------------------------------
Setting Initial Conditiosn on rank 2 
Sending msg with information to rank: 3
Sending to rank: 3 done
--------------------------------------------------------
Done Setting Initial Conditiosn on rank 2
--------------------------------------------------------
Calculation Started on rank 2
Padding Initialized: 1 0 0 -1 on Rank: 2 
Received on the rank 3 
--------------------------------------------------------
Setting Initial Conditiosn on rank 3 
Sending msg with information to rank: 4
Sending to rank: 4 done
--------------------------------------------------------
Done Setting Initial Conditiosn on rank 3
--------------------------------------------------------
Calculation Started on rank 3
Padding Initialized: 0 1 0 0 on Rank: 3 
Received on the rank 4 
--------------------------------------------------------
Setting Initial Conditiosn on rank 4 
Sending msg with information to rank: 5
Sending to rank: 5 done
--------------------------------------------------------
Done Setting Initial Conditiosn on rank 4
--------------------------------------------------------
Calculation Started on rank 4
Padding Initialized: 0 0 0 0 on Rank: 4 
Received on the rank 5 
--------------------------------------------------------
Setting Initial Conditiosn on rank 5 
Sending msg with information to rank: 6
Sending to rank: 6 done
--------------------------------------------------------
Done Setting Initial Conditiosn on rank 5
--------------------------------------------------------
Calculation Started on rank 5
Padding Initialized: 0 0 0 -1 on Rank: 5 
Received on the rank 6 
--------------------------------------------------------Sending msg with information to rank: 7
Sending to rank: 7 done
--------------------------------------------------------

Setting Initial Conditiosn on rank 6 
Done Setting Initial Conditiosn on rank 6
--------------------------------------------------------
Calculation Started on rank 6
Padding Initialized: 0 1 0 0 on Rank: 6 
Received on the rank 7 
--------------------------------------------------------
Setting Initial Conditiosn on rank 7 
Sending msg with information to rank: 8
Sending to rank: 8 done
--------------------------------------------------------
Done Setting Initial Conditiosn on rank 7
--------------------------------------------------------
Calculation Started on rank 7
Padding Initialized: 0 0 0 0 on Rank: 7 
Received on the rank 8 
--------------------------------------------------------
Setting Initial Conditiosn on rank 8 
Sending msg with information to rank: 9
Sending to rank: 9 done
--------------------------------------------------------
Received on the rank 9 
--------------------------------------------------------
Done Setting Initial Conditiosn on rank 8
--------------------------------------------------------
Calculation Started on rank 8
Padding Initialized: 0 0 0 -1 on Rank: 8 
Sending msg with information to rank: 10
Sending to rank: 10 done
--------------------------------------------------------
Setting Initial Conditiosn on rank 9 
Received on the rank 10 
--------------------------------------------------------
Sending msg with information to rank: 11
Sending to rank: 11 done
--------------------------------------------------------
Done Setting Initial Conditiosn on rank 9
--------------------------------------------------------
Calculation Started on rank 9
Padding Initialized: 0 1 0 0 on Rank: 9 
Setting Initial Conditiosn on rank 10 
Sending msg with information to rank: 12
Sending to rank: 12 done
--------------------------------------------------------
Done Setting Initial Conditiosn on rank 10
--------------------------------------------------------
Calculation Started on rank 10
Padding Initialized: 0 0 0 0 on Rank: 10 
Received on the rank 11 
--------------------------------------------------------
Setting Initial Conditiosn on rank 11 
Done Setting Initial Conditiosn on rank 11
--------------------------------------------------------
Calculation Started on rank 11
Padding Initialized: 0 0 0 -1 on Rank: 11 
Received on the rank 12 
--------------------------------------------------------
Setting Initial Conditiosn on rank 12 
Sending msg with information to rank: 13
Sending to rank: 13 done
--------------------------------------------------------
Received on the rank 13 
--------------------------------------------------------
Done Setting Initial Conditiosn on rank 12
--------------------------------------------------------
Calculation Started on rank 12
Sending msg with information to rank: 14
Sending to rank: 14 done
--------------------------------------------------------
Padding Initialized: 0 1 0 0 on Rank: 12 
Setting Initial Conditiosn on rank 13 
Received on the rank 14 
--------------------------------------------------------Sending msg with information to rank: 15
Sending to rank: 15 done
--------------------------------------------------------
Done Setting Initial Conditiosn on rank 13
--------------------------------------------------------
Calculation Started on rank 13
Padding Initialized: 0 0 0 0 on Rank: 13 

Setting Initial Conditiosn on rank 14 
Done Setting Initial Conditiosn on rank 14
--------------------------------------------------------
Calculation Started on rank 14
Padding Initialized: 0 0 0 -1 on Rank: 14 
Received on the rank 15 
--------------------------------------------------------
Setting Initial Conditiosn on rank 15 
Sending msg with information to rank: 16
Sending to rank: 16 done
--------------------------------------------------------
Received on the rank 16 
--------------------------------------------------------
Done Setting Initial Conditiosn on rank 15
--------------------------------------------------------
Calculation Started on rank 15
Padding Initialized: 0 1 0 0 on Rank: 15 
Sending msg with information to rank: 17
Sending to rank: 17 done
--------------------------------------------------------
Setting Initial Conditiosn on rank 16 
Received on the rank 17 
--------------------------------------------------------
Done Setting Initial Conditiosn on rank 16
--------------------------------------------------------
Calculation Started on rank 16
Padding Initialized: 0 0 0 0 on Rank: 16 
Sending msg with information to rank: 18
Sending to rank: 18 done
--------------------------------------------------------
Setting Initial Conditiosn on rank 17 
Received on the rank 18 
--------------------------------------------------------
Done Setting Initial Conditiosn on rank 17
--------------------------------------------------------
Calculation Started on rank 17
Padding Initialized: 0 0 0 -1 on Rank: 17 
Setting Initial Conditiosn on rank 18 
Sending msg with information to rank: 19
Sending to rank: 19 done
--------------------------------------------------------
Done Setting Initial Conditiosn on rank 18
--------------------------------------------------------
Calculation Started on rank 18
Padding Initialized: 0 1 -1 0 on Rank: 18 
Received on the rank 19 
--------------------------------------------------------
Sending msg with information to rank: 20
Sending to rank: 20 done
--------------------------------------------------------
Setting Initial Conditiosn on rank 19 
Received on the rank 20 
Setting Initial Conditiosn on rank 0 
Done Setting Initial Conditiosn on rank 0
--------------------------------------------------------
Calculation Started on rank 0
Padding Initialized: 1 1 0 0 on Rank: 0 
GLOBAL DELTA: 100.000000
----------------------------------------------------------------
Done Setting Initial Conditiosn on rank 19
--------------------------------------------------------
Calculation Started on rank 19
Padding Initialized: 0 0 -1 0 on Rank: 19 
--------------------------------------------------------
Setting Initial Conditiosn on rank 20 
Done Setting Initial Conditiosn on rank 20
--------------------------------------------------------
Calculation Started on rank 20
Padding Initialized: 0 0 -1 -1 on Rank: 20 
On Iteration: 0 we have Average: 255.276260 
GLOBAL DELTA: 2.772018
----------------------------------------------------------------
On Iteration: 100 we have Average: 254.197800 
TIME PER UPDFREQ M: 2550 N: 1695 size: 21 total_it: -2 iter: 100 Error: 0.100000 time: 0.507578 
GLOBAL DELTA: 1.362732
----------------------------------------------------------------
On Iteration: 200 we have Average: 253.772461 
TIME PER UPDFREQ M: 2550 N: 1695 size: 21 total_it: -2 iter: 200 Error: 0.100000 time: 0.507738 
GLOBAL DELTA: 0.857788
----------------------------------------------------------------
On Iteration: 300 we have Average: 253.447906 
TIME PER UPDFREQ M: 2550 N: 1695 size: 21 total_it: -2 iter: 300 Error: 0.100000 time: 0.504993 
GLOBAL DELTA: 0.625397
----------------------------------------------------------------
On Iteration: 400 we have Average: 253.177658 
TIME PER UPDFREQ M: 2550 N: 1695 size: 21 total_it: -2 iter: 400 Error: 0.100000 time: 0.496632 
GLOBAL DELTA: 0.522797
----------------------------------------------------------------
On Iteration: 500 we have Average: 252.940674 
TIME PER UPDFREQ M: 2550 N: 1695 size: 21 total_it: -2 iter: 500 Error: 0.100000 time: 0.509512 
GLOBAL DELTA: 0.451630
----------------------------------------------------------------
On Iteration: 600 we have Average: 252.729416 
TIME PER UPDFREQ M: 2550 N: 1695 size: 21 total_it: -2 iter: 600 Error: 0.100000 time: 0.501934 
GLOBAL DELTA: 0.399750
----------------------------------------------------------------
On Iteration: 700 we have Average: 252.535828 
TIME PER UPDFREQ M: 2550 N: 1695 size: 21 total_it: -2 iter: 700 Error: 0.100000 time: 0.504880 
GLOBAL DELTA: 0.360046
----------------------------------------------------------------
On Iteration: 800 we have Average: 252.355087 
TIME PER UPDFREQ M: 2550 N: 1695 size: 21 total_it: -2 iter: 800 Error: 0.100000 time: 0.514157 
GLOBAL DELTA: 0.328125
----------------------------------------------------------------
On Iteration: 900 we have Average: 252.185547 
TIME PER UPDFREQ M: 2550 N: 1695 size: 21 total_it: -2 iter: 900 Error: 0.100000 time: 0.488786 
GLOBAL DELTA: 0.301575
----------------------------------------------------------------
On Iteration: 1000 we have Average: 252.025574 
TIME PER UPDFREQ M: 2550 N: 1695 size: 21 total_it: -2 iter: 1000 Error: 0.100000 time: 0.485299 
GLOBAL DELTA: 0.278351
----------------------------------------------------------------
On Iteration: 1100 we have Average: 251.873627 
TIME PER UPDFREQ M: 2550 N: 1695 size: 21 total_it: -2 iter: 1100 Error: 0.100000 time: 0.483561 
GLOBAL DELTA: 0.257935
----------------------------------------------------------------
On Iteration: 1200 we have Average: 251.727570 
TIME PER UPDFREQ M: 2550 N: 1695 size: 21 total_it: -2 iter: 1200 Error: 0.100000 time: 0.505034 
GLOBAL DELTA: 0.239777
----------------------------------------------------------------
On Iteration: 1300 we have Average: 251.588165 
TIME PER UPDFREQ M: 2550 N: 1695 size: 21 total_it: -2 iter: 1300 Error: 0.100000 time: 0.446872 
GLOBAL DELTA: 0.223511
----------------------------------------------------------------
On Iteration: 1400 we have Average: 251.454498 
TIME PER UPDFREQ M: 2550 N: 1695 size: 21 total_it: -2 iter: 1400 Error: 0.100000 time: 0.449400 
GLOBAL DELTA: 0.208710
----------------------------------------------------------------
On Iteration: 1500 we have Average: 251.326141 
TIME PER UPDFREQ M: 2550 N: 1695 size: 21 total_it: -2 iter: 1500 Error: 0.100000 time: 0.470675 
GLOBAL DELTA: 0.195480
----------------------------------------------------------------
On Iteration: 1600 we have Average: 251.201553 
TIME PER UPDFREQ M: 2550 N: 1695 size: 21 total_it: -2 iter: 1600 Error: 0.100000 time: 0.490768 
GLOBAL DELTA: 0.183517
----------------------------------------------------------------
On Iteration: 1700 we have Average: 251.081528 
TIME PER UPDFREQ M: 2550 N: 1695 size: 21 total_it: -2 iter: 1700 Error: 0.100000 time: 0.375969 
GLOBAL DELTA: 0.172577
----------------------------------------------------------------
On Iteration: 1800 we have Average: 250.963867 
TIME PER UPDFREQ M: 2550 N: 1695 size: 21 total_it: -2 iter: 1800 Error: 0.100000 time: 0.299397 
GLOBAL DELTA: 0.162643
----------------------------------------------------------------
On Iteration: 1900 we have Average: 250.850601 
TIME PER UPDFREQ M: 2550 N: 1695 size: 21 total_it: -2 iter: 1900 Error: 0.100000 time: 0.294006 
GLOBAL DELTA: 0.153519
----------------------------------------------------------------
On Iteration: 2000 we have Average: 250.740692 
TIME PER UPDFREQ M: 2550 N: 1695 size: 21 total_it: -2 iter: 2000 Error: 0.100000 time: 0.297526 
GLOBAL DELTA: 0.145248
----------------------------------------------------------------
On Iteration: 2100 we have Average: 250.633347 
TIME PER UPDFREQ M: 2550 N: 1695 size: 21 total_it: -2 iter: 2100 Error: 0.100000 time: 0.293355 
GLOBAL DELTA: 0.137634
----------------------------------------------------------------
On Iteration: 2200 we have Average: 250.528839 
TIME PER UPDFREQ M: 2550 N: 1695 size: 21 total_it: -2 iter: 2200 Error: 0.100000 time: 0.277709 
GLOBAL DELTA: 0.130615
----------------------------------------------------------------
On Iteration: 2300 we have Average: 250.426285 
TIME PER UPDFREQ M: 2550 N: 1695 size: 21 total_it: -2 iter: 2300 Error: 0.100000 time: 0.258953 
GLOBAL DELTA: 0.124138
----------------------------------------------------------------
On Iteration: 2400 we have Average: 250.326599 
TIME PER UPDFREQ M: 2550 N: 1695 size: 21 total_it: -2 iter: 2400 Error: 0.100000 time: 0.249078 
GLOBAL DELTA: 0.118195
----------------------------------------------------------------
On Iteration: 2500 we have Average: 250.228226 
TIME PER UPDFREQ M: 2550 N: 1695 size: 21 total_it: -2 iter: 2500 Error: 0.100000 time: 0.248863 
GLOBAL DELTA: 0.112709
----------------------------------------------------------------
On Iteration: 2600 we have Average: 250.132599 
TIME PER UPDFREQ M: 2550 N: 1695 size: 21 total_it: -2 iter: 2600 Error: 0.100000 time: 0.248619 
GLOBAL DELTA: 0.107635
----------------------------------------------------------------
On Iteration: 2700 we have Average: 250.039383 
TIME PER UPDFREQ M: 2550 N: 1695 size: 21 total_it: -2 iter: 2700 Error: 0.100000 time: 0.248811 
GLOBAL DELTA: 0.103043
----------------------------------------------------------------
On Iteration: 2800 we have Average: 249.947845 
TIME PER UPDFREQ M: 2550 N: 1695 size: 21 total_it: -2 iter: 2800 Error: 0.100000 time: 0.248540 
GLOBAL DELTA: 0.099609
----------------------------------------------------------------
Calculation Finished on rank: 0
--------------------------------------------------------
Calculation Finished on rank: 1
--------------------------------------------------------
SEND BACK: mmh 370 nnh 567 
Calculation Finished on rank: 2
--------------------------------------------------------
SEND BACK: mmh 370 nnh 567 
Calculation Finished on rank: 3
--------------------------------------------------------
SEND BACK: mmh 366 nnh 569 
Calculation Finished on rank: 4
--------------------------------------------------------
SEND BACK: mmh 366 nnh 567 
Calculation Finished on rank: 5
--------------------------------------------------------
SEND BACK: mmh 366 nnh 567 
Calculation Finished on rank: 6
--------------------------------------------------------
SEND BACK: mmh 366 nnh 569 
Calculation Finished on rank: 7
--------------------------------------------------------
SEND BACK: mmh 366 nnh 567 
Calculation Finished on rank: 8
Calculation Finished on rank: 9
--------------------------------------------------------
SEND BACK: mmh 366 nnh 569 
Calculation Finished on rank: 10
--------------------------------------------------------
SEND BACK: mmh 366 nnh 567 
Calculation Finished on rank: 11
--------------------------------------------------------
SEND BACK: mmh 366 nnh 567 
Calculation Finished on rank: 12
--------------------------------------------------------
SEND BACK: mmh 366 nnh 569 
Calculation Finished on rank: 13
--------------------------------------------------------
SEND BACK: mmh 366 nnh 567 
Calculation Finished on rank: 14
--------------------------------------------------------
SEND BACK: mmh 366 nnh 567 
Calculation Finished on rank: 15
--------------------------------------------------------
SEND BACK: mmh 366 nnh 569 
Calculation Finished on rank: 16
--------------------------------------------------------
SEND BACK: mmh 366 nnh 567 
Calculation Finished on rank: 17
--------------------------------------------------------
SEND BACK: mmh 366 nnh 567 
Calculation Finished on rank: 18
--------------------------------------------------------
SEND BACK: mmh 366 nnh 569 
Calculation Finished on rank: 19
--------------------------------------------------------
SEND BACK: mmh 366 nnh 567 
Calculation Finished on rank: 20
--------------------------------------------------------
SEND BACK: mmh 366 nnh 567 
--------------------------------------------------------
SEND BACK: mmh 366 nnh 567 
RECV : mmh 370 nnh 567 
Received Message from 1, and with params 0 567 368 565
RECV : mmh 370 nnh 567 
Received Message from 2, and with params 0 1132 368 565
RECV : mmh 366 nnh 569 
Received Message from 3, and with params 368 0 364 567
RECV : mmh 366 nnh 567 
Received Message from 4, and with params 368 567 364 565
RECV : mmh 366 nnh 567 
Received Message from 5, and with params 368 1132 364 565
RECV : mmh 366 nnh 569 
Received Message from 6, and with params 732 0 364 567
RECV : mmh 366 nnh 567 
Received Message from 7, and with params 732 567 364 565
RECV : mmh 366 nnh 567 
Received Message from 8, and with params 732 1132 364 565
RECV : mmh 366 nnh 569 
Received Message from 9, and with params 1096 0 364 567
RECV : mmh 366 nnh 567 
Received Message from 10, and with params 1096 567 364 565
RECV : mmh 366 nnh 567 
Received Message from 11, and with params 1096 1132 364 565
RECV : mmh 366 nnh 569 
Received Message from 12, and with params 1460 0 364 567
RECV : mmh 366 nnh 567 
Received Message from 13, and with params 1460 567 364 565
RECV : mmh 366 nnh 567 
Received Message from 14, and with params 1460 1132 364 565
RECV : mmh 366 nnh 569 
Received Message from 15, and with params 1824 0 364 567
RECV : mmh 366 nnh 567 
Received Message from 16, and with params 1824 567 364 565
RECV : mmh 366 nnh 567 
Received Message from 17, and with params 1824 1132 364 565
RECV : mmh 366 nnh 569 
Received Message from 18, and with params 2188 0 364 567
RECV : mmh 366 nnh 567 
Received Message from 19, and with params 2188 567 364 565
RECV : mmh 366 nnh 567 
Received Message from 20, and with params 2188 1132 364 565
TIME TO FINISH M: 2550 N: 1695 size: 21 total_it: -2 iter: 2900 Error: 0.100000 time: 11.491901 
TIME OF MIN  M: 2550 N: 1695 size: 21 total_it: -2 iter: 2900 Error: 0.100000 time: 0.248540 
Writing 2550 x 1695 picture into file: ../results_performance/1416612477508430137p.pgm

real	0m16.230s
user	5m5.566s
sys	0m8.884s

--------------------
Finished MPI program
--------------------

