--------------------------------------------------
Running MPI program <job1416612470215454189> on 3 processes
--------------------------------------------------

Starting the Program
--------------------------------------------------------
Topology created: (3,1)
Probing the Image Size:
Done. Dimensions 2550, 1695
--------------------------------------------------------
Received Dimensions on the rank: 2 which are 2552, 1697
Received Dimensions on the rank: 1 which are 2552, 1697
Reading the data of size : 2550,1695 on master node
Receiving on the rank 2 
Receiving on the rank 1 
Done Reading the data of master node
--------------------------------------------------------
Sending msg with information to rank: 1
Sending to rank: 1 done
--------------------------------------------------------
Received on the rank 1 
--------------------------------------------------------
Setting Initial Conditiosn on rank 1 
Sending msg with information to rank: 2
Sending to rank: 2 done
--------------------------------------------------------
Received on the rank 2 
--------------------------------------------------------
Done Setting Initial Conditiosn on rank 1
--------------------------------------------------------
Calculation Started on rank 1
Padding Initialized: 0 1 0 -1 on Rank: 1 
Setting Initial Conditiosn on rank 0 
Setting Initial Conditiosn on rank 2 
Done Setting Initial Conditiosn on rank 0
--------------------------------------------------------
Calculation Started on rank 0
Padding Initialized: 1 1 0 -1 on Rank: 0 
Done Setting Initial Conditiosn on rank 2
--------------------------------------------------------
Calculation Started on rank 2
Padding Initialized: 0 1 -1 -1 on Rank: 2 
GLOBAL DELTA: 100.000000
----------------------------------------------------------------
On Iteration: 0 we have Average: 255.831558 
GLOBAL DELTA: 2.772018
----------------------------------------------------------------
On Iteration: 100 we have Average: 254.680817 
TIME PER UPDFREQ M: 2550 N: 1695 size: 3 total_it: -2 iter: 100 Error: 0.100000 time: 2.889033 
GLOBAL DELTA: 1.362732
----------------------------------------------------------------
On Iteration: 200 we have Average: 254.184570 
TIME PER UPDFREQ M: 2550 N: 1695 size: 3 total_it: -2 iter: 200 Error: 0.100000 time: 3.175765 
GLOBAL DELTA: 0.857788
----------------------------------------------------------------
On Iteration: 300 we have Average: 253.807068 
TIME PER UPDFREQ M: 2550 N: 1695 size: 3 total_it: -2 iter: 300 Error: 0.100000 time: 3.020788 
GLOBAL DELTA: 0.625397
----------------------------------------------------------------
On Iteration: 400 we have Average: 253.502167 
TIME PER UPDFREQ M: 2550 N: 1695 size: 3 total_it: -2 iter: 400 Error: 0.100000 time: 4.141080 
GLOBAL DELTA: 0.522797
----------------------------------------------------------------
On Iteration: 500 we have Average: 253.246826 
TIME PER UPDFREQ M: 2550 N: 1695 size: 3 total_it: -2 iter: 500 Error: 0.100000 time: 3.787921 
GLOBAL DELTA: 0.451630
----------------------------------------------------------------
On Iteration: 600 we have Average: 253.015366 
TIME PER UPDFREQ M: 2550 N: 1695 size: 3 total_it: -2 iter: 600 Error: 0.100000 time: 3.566996 
GLOBAL DELTA: 0.399750
----------------------------------------------------------------
On Iteration: 700 we have Average: 252.792313 
TIME PER UPDFREQ M: 2550 N: 1695 size: 3 total_it: -2 iter: 700 Error: 0.100000 time: 3.681158 
GLOBAL DELTA: 0.360046
----------------------------------------------------------------
On Iteration: 800 we have Average: 252.590408 
TIME PER UPDFREQ M: 2550 N: 1695 size: 3 total_it: -2 iter: 800 Error: 0.100000 time: 3.337476 
GLOBAL DELTA: 0.328125
----------------------------------------------------------------
On Iteration: 900 we have Average: 252.405045 
TIME PER UPDFREQ M: 2550 N: 1695 size: 3 total_it: -2 iter: 900 Error: 0.100000 time: 2.621859 
GLOBAL DELTA: 0.301575
----------------------------------------------------------------
On Iteration: 1000 we have Average: 252.229324 
TIME PER UPDFREQ M: 2550 N: 1695 size: 3 total_it: -2 iter: 1000 Error: 0.100000 time: 2.506428 
GLOBAL DELTA: 0.278351
----------------------------------------------------------------
On Iteration: 1100 we have Average: 252.061752 
TIME PER UPDFREQ M: 2550 N: 1695 size: 3 total_it: -2 iter: 1100 Error: 0.100000 time: 1.776404 
GLOBAL DELTA: 0.257935
----------------------------------------------------------------
On Iteration: 1200 we have Average: 251.901169 
TIME PER UPDFREQ M: 2550 N: 1695 size: 3 total_it: -2 iter: 1200 Error: 0.100000 time: 2.326298 
GLOBAL DELTA: 0.239777
----------------------------------------------------------------
On Iteration: 1300 we have Average: 251.742050 
TIME PER UPDFREQ M: 2550 N: 1695 size: 3 total_it: -2 iter: 1300 Error: 0.100000 time: 2.310115 
GLOBAL DELTA: 0.223511
----------------------------------------------------------------
On Iteration: 1400 we have Average: 251.585175 
TIME PER UPDFREQ M: 2550 N: 1695 size: 3 total_it: -2 iter: 1400 Error: 0.100000 time: 2.276799 
GLOBAL DELTA: 0.208710
----------------------------------------------------------------
On Iteration: 1500 we have Average: 251.436569 
TIME PER UPDFREQ M: 2550 N: 1695 size: 3 total_it: -2 iter: 1500 Error: 0.100000 time: 2.271323 
GLOBAL DELTA: 0.195480
----------------------------------------------------------------
On Iteration: 1600 we have Average: 251.292236 
TIME PER UPDFREQ M: 2550 N: 1695 size: 3 total_it: -2 iter: 1600 Error: 0.100000 time: 2.268055 
GLOBAL DELTA: 0.183517
----------------------------------------------------------------
On Iteration: 1700 we have Average: 251.155914 
TIME PER UPDFREQ M: 2550 N: 1695 size: 3 total_it: -2 iter: 1700 Error: 0.100000 time: 2.272170 
GLOBAL DELTA: 0.172577
----------------------------------------------------------------
On Iteration: 1800 we have Average: 251.028336 
TIME PER UPDFREQ M: 2550 N: 1695 size: 3 total_it: -2 iter: 1800 Error: 0.100000 time: 2.273428 
GLOBAL DELTA: 0.162643
----------------------------------------------------------------
On Iteration: 1900 we have Average: 250.903809 
TIME PER UPDFREQ M: 2550 N: 1695 size: 3 total_it: -2 iter: 1900 Error: 0.100000 time: 2.271537 
GLOBAL DELTA: 0.153519
----------------------------------------------------------------
On Iteration: 2000 we have Average: 250.785416 
TIME PER UPDFREQ M: 2550 N: 1695 size: 3 total_it: -2 iter: 2000 Error: 0.100000 time: 2.273726 
GLOBAL DELTA: 0.145248
----------------------------------------------------------------
On Iteration: 2100 we have Average: 250.667938 
TIME PER UPDFREQ M: 2550 N: 1695 size: 3 total_it: -2 iter: 2100 Error: 0.100000 time: 2.271775 
GLOBAL DELTA: 0.137634
----------------------------------------------------------------
On Iteration: 2200 we have Average: 250.552231 
TIME PER UPDFREQ M: 2550 N: 1695 size: 3 total_it: -2 iter: 2200 Error: 0.100000 time: 2.267505 
GLOBAL DELTA: 0.130615
----------------------------------------------------------------
On Iteration: 2300 we have Average: 250.435562 
TIME PER UPDFREQ M: 2550 N: 1695 size: 3 total_it: -2 iter: 2300 Error: 0.100000 time: 2.270869 
GLOBAL DELTA: 0.124138
----------------------------------------------------------------
On Iteration: 2400 we have Average: 250.319168 
TIME PER UPDFREQ M: 2550 N: 1695 size: 3 total_it: -2 iter: 2400 Error: 0.100000 time: 2.271447 
GLOBAL DELTA: 0.118195
----------------------------------------------------------------
On Iteration: 2500 we have Average: 250.203110 
TIME PER UPDFREQ M: 2550 N: 1695 size: 3 total_it: -2 iter: 2500 Error: 0.100000 time: 2.267151 
GLOBAL DELTA: 0.112709
----------------------------------------------------------------
On Iteration: 2600 we have Average: 250.090347 
TIME PER UPDFREQ M: 2550 N: 1695 size: 3 total_it: -2 iter: 2600 Error: 0.100000 time: 2.272494 
GLOBAL DELTA: 0.107635
----------------------------------------------------------------
On Iteration: 2700 we have Average: 249.981537 
TIME PER UPDFREQ M: 2550 N: 1695 size: 3 total_it: -2 iter: 2700 Error: 0.100000 time: 2.269837 
GLOBAL DELTA: 0.103043
----------------------------------------------------------------
On Iteration: 2800 we have Average: 249.876740 
TIME PER UPDFREQ M: 2550 N: 1695 size: 3 total_it: -2 iter: 2800 Error: 0.100000 time: 2.266808 
GLOBAL DELTA: 0.099609
----------------------------------------------------------------
Calculation Finished on rank: 0
--------------------------------------------------------
Calculation Finished on rank: 1
--------------------------------------------------------
SEND BACK: mmh 852 nnh 1699 
Calculation Finished on rank: 2
--------------------------------------------------------
SEND BACK: mmh 852 nnh 1699 
RECV : mmh 852 nnh 1699 
Received Message from 1, and with params 852 0 850 1697
RECV : mmh 852 nnh 1699 
Received Message from 2, and with params 1702 0 850 1697
TIME TO FINISH M: 2550 N: 1695 size: 3 total_it: -2 iter: 2900 Error: 0.100000 time: 75.485521 
TIME OF MIN  M: 2550 N: 1695 size: 3 total_it: -2 iter: 2900 Error: 0.100000 time: 1.776404 
Writing 2550 x 1695 picture into file: ../results_performance/1416612470215454189p.pgm

real	1m19.231s
user	3m52.536s
sys	0m2.657s

--------------------
Finished MPI program
--------------------

