--------------------------------------------------
Running MPI program <job1416612471810961963> on 8 processes
--------------------------------------------------

Starting the Program
--------------------------------------------------------
Topology created: (4,2)
Probing the Image Size:
Done. Dimensions 2550, 1695
--------------------------------------------------------
Received Dimensions on the rank: 1 which are 2552, 1697
Received Dimensions on the rank: 2 which are 2552, 1697
Received Dimensions on the rank: 3 which are 2552, 1697
Received Dimensions on the rank: 4 which are 2552, 1697
Received Dimensions on the rank: 5 which are 2552, 1697
Received Dimensions on the rank: 6 which are 2552, 1697
Received Dimensions on the rank: 7 which are 2552, 1697
Reading the data of size : 2550,1695 on master node
Receiving on the rank 1 
Receiving on the rank 7 
Receiving on the rank 4 
Receiving on the rank 5 
Receiving on the rank 6 
Receiving on the rank 2 
Receiving on the rank 3 
Done Reading the data of master node
--------------------------------------------------------
Sending msg with information to rank: 1
Sending to rank: 1 done
--------------------------------------------------------
Received on the rank 1 
--------------------------------------------------------
Setting Initial Conditiosn on rank 1 
Done Setting Initial Conditiosn on rank 1
--------------------------------------------------------
Calculation Started on rank 1
Padding Initialized: 1 0 0 -1 on Rank: 1 
Sending msg with information to rank: 2
Sending to rank: 2 done
--------------------------------------------------------
Received on the rank 2 
--------------------------------------------------------
Setting Initial Conditiosn on rank 2 
Sending msg with information to rank: 3
Sending to rank: 3 done
--------------------------------------------------------
Received on the rank 3 
Sending msg with information to rank: 4
Sending to rank: 4 done
--------------------------------------------------------
Done Setting Initial Conditiosn on rank 2
--------------------------------------------------------
Calculation Started on rank 2
Padding Initialized: 0 1 0 0 on Rank: 2 
--------------------------------------------------------
Setting Initial Conditiosn on rank 3 
Received on the rank 4 
--------------------------------------------------------
Sending msg with information to rank: 5
Sending to rank: 5 done
--------------------------------------------------------
Done Setting Initial Conditiosn on rank 3
--------------------------------------------------------
Calculation Started on rank 3
Padding Initialized: 0 0 0 -1 on Rank: 3 
Setting Initial Conditiosn on rank 4 
Received on the rank 5 
--------------------------------------------------------
Done Setting Initial Conditiosn on rank 4
--------------------------------------------------------
Calculation Started on rank 4
Padding Initialized: 0 1 0 0 on Rank: 4 
Setting Initial Conditiosn on rank 5 
Sending msg with information to rank: 6
Sending to rank: 6 done
--------------------------------------------------------
Received on the rank 6 
--------------------------------------------------------
Done Setting Initial Conditiosn on rank 5
--------------------------------------------------------
Calculation Started on rank 5
Padding Initialized: 0 0 0 -1 on Rank: 5 
Sending msg with information to rank: 7
Sending to rank: 7 done
--------------------------------------------------------
Received on the rank 7 
--------------------------------------------------------
Setting Initial Conditiosn on rank 6 
Setting Initial Conditiosn on rank 7 
Setting Initial Conditiosn on rank 0 
Done Setting Initial Conditiosn on rank 0
--------------------------------------------------------
Calculation Started on rank 0
Padding Initialized: 1 1 0 0 on Rank: 0 
Done Setting Initial Conditiosn on rank 6
--------------------------------------------------------
Calculation Started on rank 6
Padding Initialized: 0 1 -1 0 on Rank: 6 
Done Setting Initial Conditiosn on rank 7
--------------------------------------------------------
Calculation Started on rank 7
Padding Initialized: 0 0 -1 -1 on Rank: 7 
GLOBAL DELTA: 100.000000
----------------------------------------------------------------
On Iteration: 0 we have Average: 255.643036 
GLOBAL DELTA: 2.772018
----------------------------------------------------------------
On Iteration: 100 we have Average: 254.432343 
TIME PER UPDFREQ M: 2550 N: 1695 size: 8 total_it: -2 iter: 100 Error: 0.100000 time: 1.020182 
GLOBAL DELTA: 1.362732
----------------------------------------------------------------
On Iteration: 200 we have Average: 253.948990 
TIME PER UPDFREQ M: 2550 N: 1695 size: 8 total_it: -2 iter: 200 Error: 0.100000 time: 0.879289 
GLOBAL DELTA: 0.857788
----------------------------------------------------------------
On Iteration: 300 we have Average: 253.597382 
TIME PER UPDFREQ M: 2550 N: 1695 size: 8 total_it: -2 iter: 300 Error: 0.100000 time: 0.882117 
GLOBAL DELTA: 0.625397
----------------------------------------------------------------
On Iteration: 400 we have Average: 253.304642 
TIME PER UPDFREQ M: 2550 N: 1695 size: 8 total_it: -2 iter: 400 Error: 0.100000 time: 0.874226 
GLOBAL DELTA: 0.522797
----------------------------------------------------------------
On Iteration: 500 we have Average: 253.048416 
TIME PER UPDFREQ M: 2550 N: 1695 size: 8 total_it: -2 iter: 500 Error: 0.100000 time: 0.932568 
GLOBAL DELTA: 0.451630
----------------------------------------------------------------
On Iteration: 600 we have Average: 252.817596 
TIME PER UPDFREQ M: 2550 N: 1695 size: 8 total_it: -2 iter: 600 Error: 0.100000 time: 1.054441 
GLOBAL DELTA: 0.399750
----------------------------------------------------------------
On Iteration: 700 we have Average: 252.609711 
TIME PER UPDFREQ M: 2550 N: 1695 size: 8 total_it: -2 iter: 700 Error: 0.100000 time: 1.055280 
GLOBAL DELTA: 0.360046
----------------------------------------------------------------
On Iteration: 800 we have Average: 252.420242 
TIME PER UPDFREQ M: 2550 N: 1695 size: 8 total_it: -2 iter: 800 Error: 0.100000 time: 0.927419 
GLOBAL DELTA: 0.328125
----------------------------------------------------------------
On Iteration: 900 we have Average: 252.243912 
TIME PER UPDFREQ M: 2550 N: 1695 size: 8 total_it: -2 iter: 900 Error: 0.100000 time: 0.852468 
GLOBAL DELTA: 0.301575
----------------------------------------------------------------
On Iteration: 1000 we have Average: 252.080627 
TIME PER UPDFREQ M: 2550 N: 1695 size: 8 total_it: -2 iter: 1000 Error: 0.100000 time: 1.035510 
GLOBAL DELTA: 0.278351
----------------------------------------------------------------
On Iteration: 1100 we have Average: 251.925232 
TIME PER UPDFREQ M: 2550 N: 1695 size: 8 total_it: -2 iter: 1100 Error: 0.100000 time: 1.184007 
GLOBAL DELTA: 0.257935
----------------------------------------------------------------
On Iteration: 1200 we have Average: 251.776611 
TIME PER UPDFREQ M: 2550 N: 1695 size: 8 total_it: -2 iter: 1200 Error: 0.100000 time: 1.823773 
GLOBAL DELTA: 0.239777
----------------------------------------------------------------
On Iteration: 1300 we have Average: 251.635605 
TIME PER UPDFREQ M: 2550 N: 1695 size: 8 total_it: -2 iter: 1300 Error: 0.100000 time: 1.248226 
GLOBAL DELTA: 0.223511
----------------------------------------------------------------
On Iteration: 1400 we have Average: 251.497818 
TIME PER UPDFREQ M: 2550 N: 1695 size: 8 total_it: -2 iter: 1400 Error: 0.100000 time: 1.461425 
GLOBAL DELTA: 0.208710
----------------------------------------------------------------
On Iteration: 1500 we have Average: 251.366623 
TIME PER UPDFREQ M: 2550 N: 1695 size: 8 total_it: -2 iter: 1500 Error: 0.100000 time: 1.278045 
GLOBAL DELTA: 0.195480
----------------------------------------------------------------
On Iteration: 1600 we have Average: 251.240173 
TIME PER UPDFREQ M: 2550 N: 1695 size: 8 total_it: -2 iter: 1600 Error: 0.100000 time: 1.022187 
GLOBAL DELTA: 0.183517
----------------------------------------------------------------
On Iteration: 1700 we have Average: 251.117218 
TIME PER UPDFREQ M: 2550 N: 1695 size: 8 total_it: -2 iter: 1700 Error: 0.100000 time: 1.072769 
GLOBAL DELTA: 0.172577
----------------------------------------------------------------
On Iteration: 1800 we have Average: 250.998367 
TIME PER UPDFREQ M: 2550 N: 1695 size: 8 total_it: -2 iter: 1800 Error: 0.100000 time: 1.368025 
GLOBAL DELTA: 0.162643
----------------------------------------------------------------
On Iteration: 1900 we have Average: 250.883560 
TIME PER UPDFREQ M: 2550 N: 1695 size: 8 total_it: -2 iter: 1900 Error: 0.100000 time: 1.299603 
GLOBAL DELTA: 0.153519
----------------------------------------------------------------
On Iteration: 2000 we have Average: 250.771683 
TIME PER UPDFREQ M: 2550 N: 1695 size: 8 total_it: -2 iter: 2000 Error: 0.100000 time: 1.341942 
GLOBAL DELTA: 0.145248
----------------------------------------------------------------
On Iteration: 2100 we have Average: 250.661835 
TIME PER UPDFREQ M: 2550 N: 1695 size: 8 total_it: -2 iter: 2100 Error: 0.100000 time: 1.043647 
GLOBAL DELTA: 0.137634
----------------------------------------------------------------
On Iteration: 2200 we have Average: 250.554779 
TIME PER UPDFREQ M: 2550 N: 1695 size: 8 total_it: -2 iter: 2200 Error: 0.100000 time: 0.834814 
GLOBAL DELTA: 0.130615
----------------------------------------------------------------
On Iteration: 2300 we have Average: 250.452377 
TIME PER UPDFREQ M: 2550 N: 1695 size: 8 total_it: -2 iter: 2300 Error: 0.100000 time: 0.905368 
GLOBAL DELTA: 0.124138
----------------------------------------------------------------
On Iteration: 2400 we have Average: 250.352020 
TIME PER UPDFREQ M: 2550 N: 1695 size: 8 total_it: -2 iter: 2400 Error: 0.100000 time: 1.001747 
GLOBAL DELTA: 0.118195
----------------------------------------------------------------
On Iteration: 2500 we have Average: 250.253662 
TIME PER UPDFREQ M: 2550 N: 1695 size: 8 total_it: -2 iter: 2500 Error: 0.100000 time: 1.068367 
GLOBAL DELTA: 0.112709
----------------------------------------------------------------
On Iteration: 2600 we have Average: 250.157593 
TIME PER UPDFREQ M: 2550 N: 1695 size: 8 total_it: -2 iter: 2600 Error: 0.100000 time: 1.182269 
GLOBAL DELTA: 0.107635
----------------------------------------------------------------
On Iteration: 2700 we have Average: 250.062592 
TIME PER UPDFREQ M: 2550 N: 1695 size: 8 total_it: -2 iter: 2700 Error: 0.100000 time: 1.170973 
GLOBAL DELTA: 0.103043
----------------------------------------------------------------
On Iteration: 2800 we have Average: 249.970856 
TIME PER UPDFREQ M: 2550 N: 1695 size: 8 total_it: -2 iter: 2800 Error: 0.100000 time: 1.163331 
GLOBAL DELTA: 0.099609
----------------------------------------------------------------
Calculation Finished on rank: 0
--------------------------------------------------------
Calculation Finished on rank: 1
--------------------------------------------------------
SEND BACK: mmh 640 nnh 850 
Calculation Finished on rank: 2
--------------------------------------------------------
SEND BACK: mmh 640 nnh 851 
Calculation Finished on rank: 3
--------------------------------------------------------
SEND BACK: mmh 640 nnh 850 
Calculation Finished on rank: 4
--------------------------------------------------------
SEND BACK: mmh 640 nnh 851 
Calculation Finished on rank: 5
--------------------------------------------------------
SEND BACK: mmh 640 nnh 850 
Calculation Finished on rank: 6
--------------------------------------------------------
SEND BACK: mmh 640 nnh 851 
Calculation Finished on rank: 7
--------------------------------------------------------
SEND BACK: mmh 640 nnh 850 
RECV : mmh 640 nnh 850 
Received Message from 1, and with params 0 849 638 848
RECV : mmh 640 nnh 851 
Received Message from 2, and with params 638 0 638 849
RECV : mmh 640 nnh 850 
Received Message from 3, and with params 638 849 638 848
RECV : mmh 640 nnh 851 
Received Message from 4, and with params 1276 0 638 849
RECV : mmh 640 nnh 850 
Received Message from 5, and with params 1276 849 638 848
RECV : mmh 640 nnh 851 
Received Message from 6, and with params 1914 0 638 849
RECV : mmh 640 nnh 850 
Received Message from 7, and with params 1914 849 638 848
TIME TO FINISH M: 2550 N: 1695 size: 8 total_it: -2 iter: 2900 Error: 0.100000 time: 32.002591 
TIME OF MIN  M: 2550 N: 1695 size: 8 total_it: -2 iter: 2900 Error: 0.100000 time: 0.834814 
Writing 2550 x 1695 picture into file: ../results_performance/1416612471810961963p.pgm

real	0m35.460s
user	4m36.167s
sys	0m4.874s

--------------------
Finished MPI program
--------------------

